<?xml version="1.0" standalone="no"?>
<!DOCTYPE svg PUBLIC "-//W3C//DTD SVG 1.1//EN" "http://www.w3.org/Graphics/SVG/1.1/DTD/svg11.dtd">
<svg xmlns="http://www.w3.org/2000/svg">
<metadata>Copyright (C) 2014 by original authors @ fontello.com</metadata>
<defs>
<font id="fontello" horiz-adv-x="1000" >
<font-face font-family="fontello" font-weight="400" font-stretch="normal" units-per-em="1000" ascent="850" descent="-150" />
<missing-glyph horiz-adv-x="1000" />
<glyph glyph-name="menu" unicode="&#xe800;" d="m857 100v-71q0-15-10-25t-26-11h-785q-15 0-25 11t-11 25v71q0 15 11 25t25 11h785q15 0 26-11t10-25z m0 286v-72q0-14-10-25t-26-10h-785q-15 0-25 10t-11 25v72q0 14 11 25t25 10h785q15 0 26-10t10-25z m0 285v-71q0-15-10-25t-26-11h-785q-15 0-25 11t-11 25v71q0 15 11 26t25 10h785q15 0 26-10t10-26z" horiz-adv-x="857.1" />
<glyph glyph-name="share" unicode="&#xe801;" d="m650 200q62 0 106-43t44-107q0-62-44-106t-106-44-106 44-44 106q0 6 1 14t1 12l-260 156q-42-32-92-32-62 0-106 44t-44 106 44 106 106 44q54 0 92-30l260 156q0 4-1 12t-1 12q0 62 44 106t106 44 106-43 44-107q0-62-44-106t-106-44q-52 0-90 32l-262-156q2-8 2-26 0-16-2-24l262-156q36 30 90 30z" horiz-adv-x="800" />
<glyph glyph-name="search" unicode="&#xe802;" d="m643 386q0 103-74 176t-176 74-177-74-73-176 73-177 177-73 176 73 74 177z m286-465q0-29-22-50t-50-21q-30 0-50 21l-191 191q-100-69-223-69-80 0-153 31t-125 84-84 125-31 153 31 152 84 126 125 84 153 31 152-31 126-84 84-126 31-152q0-123-69-223l191-191q21-21 21-51z" horiz-adv-x="928.6" />
<glyph glyph-name="calendar" unicode="&#xe803;" d="m800 700q42 0 71-29t29-71l0-600q0-40-29-70t-71-30l-700 0q-40 0-70 30t-30 70l0 600q0 42 30 71t70 29l46 0 0-100 160 0 0 100 290 0 0-100 160 0 0 100 44 0z m0-700l0 400-700 0 0-400 700 0z m-540 800l0-170-70 0 0 170 70 0z m450 0l0-170-70 0 0 170 70 0z" horiz-adv-x="900" />
<glyph glyph-name="calendar-1" unicode="&#xe804;" d="m0-66l0 738q0 35 24 60t60 24l135 0 0 63q0 13 9 22t22 9 22-9 9-22l0-63 188 0 0 63q0 13 9 22t22 9 22-9 9-22l0-63 188 0 0 63q0 13 9 22t22 9 22-9 9-22l0-63 135 0q35 0 60-24t24-60l0-738q0-35-24-60t-60-24l-832 0q-35 0-60 24t-24 60z m63 0q0-10 5-16t16-6l832 0q10 0 16 6t5 16l0 738q0 10-5 16t-16 6l-135 0 0-63q0-13-9-22t-22-9-22 9-9 22l0 63-188 0 0-63q0-13-9-22t-22-9-22 9-9 22l0 63-188 0 0-63q0-13-9-22t-22-9-22 9-9 22l0 63-135 0q-10 0-16-6t-5-16l0-738z m156 135l0 94 125 0 0-94-125 0z m0 156l0 94 125 0 0-94-125 0z m0 156l0 94 125 0 0-94-125 0z m219-312l0 94 125 0 0-94-125 0z m0 156l0 94 125 0 0-94-125 0z m0 156l0 94 125 0 0-94-125 0z m218-312l0 94 125 0 0-94-125 0z m0 156l0 94 125 0 0-94-125 0z m0 156l0 94 125 0 0-94-125 0z" horiz-adv-x="1000" />
<glyph glyph-name="clock" unicode="&#xe805;" d="m464 685q-138 0-236-98t-98-237 98-237 236-97 237 97 98 237-98 237-237 98z m1 112q184 0 315-131t131-316-131-315-315-132-316 132-131 315 131 316 316 131z m151-518l-80-80-109 111q-19 17-19 41l0 223 113 0 0-199z" horiz-adv-x="928" />
<glyph glyph-name="comment" unicode="&#xe806;" d="m576 629l-278 0q-70 0-119-49t-49-119l0-278q0-58 44-90 68 90 179 90l223 0q92 0 158 65t65 158-65 157-158 66z m0 112q139 0 237-99t98-236-98-237-237-98l-223 0q-46 0-79-33t-33-79q-92 0-157 66t-66 158l0 278q0 115 82 197t198 83l278 0z" horiz-adv-x="928" />
<glyph glyph-name="user-outline" unicode="&#xe807;" d="m313 689q-65 0-111-46t-46-110 46-111 111-46 110 46 46 111-46 110-110 46z m0 104q107 0 183-77t77-183-77-184-183-76-184 76-76 184 76 183 184 77z m0-677q-74 0-127-22t-72-54q75-29 199-29t197 29q-21 30-73 53t-124 23z m0 104q136 0 224-63t88-146q0-41-89-72t-223-32q-140 0-227 32t-86 72q0 83 86 146t227 63z" horiz-adv-x="625" />
<glyph glyph-name="user" unicode="&#xe808;" d="m353 351q139 0 237-99t98-236q0-47-33-80t-79-33l-446 0q-46 0-79 33t-33 80q0 138 98 236t237 99z m-167 279q0 167 167 167 168 0 168-167 0-168-168-168-167 0-167 168z" horiz-adv-x="705" />
<glyph glyph-name="doc-text" unicode="&#xe809;" d="m819 638q16-16 27-42t11-50v-642q0-23-15-38t-38-16h-750q-23 0-38 16t-16 38v892q0 23 16 38t38 16h500q22 0 49-11t42-27z m-248 136v-210h210q-5 16-12 23l-175 175q-6 7-23 12z m215-853v572h-232q-23 0-38 15t-16 38v233h-429v-858h715z m-572 483q0 7 5 12t13 5h393q8 0 13-5t5-12v-36q0-8-5-13t-13-5h-393q-8 0-13 5t-5 13v36z m411-125q8 0 13-5t5-13v-36q0-8-5-13t-13-5h-393q-8 0-13 5t-5 13v36q0 8 5 13t13 5h393z m0-143q8 0 13-5t5-13v-36q0-8-5-13t-13-5h-393q-8 0-13 5t-5 13v36q0 8 5 13t13 5h393z" horiz-adv-x="857.1" />
<glyph glyph-name="down-outline" unicode="&#xe80a;" d="m416-153l-370 371q-46 46-46 110t46 110q43 43 106 44t108-38l0 253q0 65 46 110t110 46 111-46 46-110l0-253q45 40 108 38t107-44q46-46 46-110t-46-110z m-260 534q-22 0-37-15t-15-37 15-37l297-298 298 298q15 15 15 37t-15 37-37 15-37-15l-171-173 0 504q0 21-16 36t-37 15-36-15-15-36l0-504-172 173q-15 15-37 15z" horiz-adv-x="834" />
<glyph glyph-name="down-open-big" unicode="&#xe80b;" d="m63 570l370-356 372 356q22 26 48 0 26-22 0-48l-396-392q-22-22-48 0l-396 392q-26 26 0 48 24 24 50 0z" horiz-adv-x="866" />
<glyph glyph-name="angle-down" unicode="&#xe80c;" d="m600 439q0-7-6-13l-260-260q-5-5-13-5t-12 5l-260 260q-6 6-6 13t6 13l27 28q6 6 13 6t13-6l219-219 220 219q5 6 13 6t12-6l28-28q6-5 6-13z" horiz-adv-x="642.9" />
<glyph glyph-name="circle-empty" unicode="&#xe80d;" d="m429 654q-83 0-153-41t-110-111-41-152 41-152 110-111 153-41 152 41 110 111 41 152-41 152-110 111-152 41z m428-304q0-117-57-215t-156-156-215-58-216 58-155 156-58 215 58 215 155 156 216 58 215-58 156-156 57-215z" horiz-adv-x="857.1" />
<glyph glyph-name="dot-circled" unicode="&#xe80e;" d="m571 350q0-59-41-101t-101-42-101 42-42 101 42 101 101 42 101-42 41-101z m-142 304q-83 0-153-41t-110-111-41-152 41-152 110-111 153-41 152 41 110 111 41 152-41 152-110 111-152 41z m428-304q0-117-57-215t-156-156-215-58-216 58-155 156-58 215 58 215 155 156 216 58 215-58 156-156 57-215z" horiz-adv-x="857.1" />
<glyph glyph-name="check" unicode="&#xe80f;" d="m786 331v-177q0-67-47-114t-114-47h-464q-67 0-114 47t-47 114v464q0 66 47 113t114 48h464q35 0 65-14 9-4 10-13 2-10-5-16l-27-28q-6-5-13-5-2 0-5 1-13 3-25 3h-464q-37 0-63-26t-27-63v-464q0-37 27-63t63-27h464q37 0 63 27t26 63v141q0 8 5 13l36 35q6 6 13 6 3 0 7-2 11-4 11-16z m129 273l-455-454q-13-14-31-14t-32 14l-240 240q-14 13-14 31t14 32l61 62q14 13 32 13t32-13l147-147 361 361q13 13 31 13t32-13l62-61q13-14 13-32t-13-32z" horiz-adv-x="928.6" />
<glyph glyph-name="check-empty" unicode="&#xe810;" d="m625 707h-464q-37 0-63-26t-27-63v-464q0-37 27-63t63-27h464q37 0 63 27t26 63v464q0 37-26 63t-63 26z m161-89v-464q0-67-47-114t-114-47h-464q-67 0-114 47t-47 114v464q0 66 47 113t114 48h464q66 0 114-48t47-113z" horiz-adv-x="785.7" />
<glyph glyph-name="export" unicode="&#xe811;" d="m750 60l0 56 100 82 0-188q0-20-15-35t-35-15l-750 0q-20 0-35 15t-15 35l0 550q0 22 14 36t36 14l288 0q-32-24-59-49t-39-39l-10-12-130 0 0-450 650 0z m-82 348q-166 0-242-41t-160-181q0 8 1 22t9 56 22 79 44 83 70 79 107 56 149 23l0 156 332-250-332-260 0 178z" horiz-adv-x="1000" />
<glyph glyph-name="pencil-alt" unicode="&#xe812;" d="m304 310l60 117 226 226c14-8 20-12 34-26s17-20 26-34l-226-226-118-60z m-304-303l113 444 237 236s80 23 165 0l-206-205-150-77-33-178c42-42 64-65 98-97l176 33 78 150 208 209c27-89-2-169-2-169l-236-237-445-113z" horiz-adv-x="697" />
<glyph glyph-name="chat" unicode="&#xe813;" d="m743 456q74-14 121-68t47-149q0-113-65-168t-158-55l-112 0q-46 0-79-34t-33-79q-92 0-157 66t-66 158l0 112q0 29 6 56l106 0q2 0 5-1t4-1q-9-23-9-54l0-112q0-56 44-88 67 88 179 88l112 0q111 0 111 112 0 96-80 109 21 48 24 108z m-279 229l-223 0q-39 0-64-11t-34-33-11-35-2-32q0-112 111-112l112 0q111 0 179-89 44 33 44 89l0 112q0 65-34 88t-78 23z m0 112q92 0 158-58t66-165l0-112q0-92-65-158t-159-65q0 46-33 79t-78 33l-112 0q-93 0-158 55t-65 168q0 114 65 168t158 55l223 0z" horiz-adv-x="928" />
<glyph glyph-name="mic" unicode="&#xe814;" d="m620 488q20 0 20-20l0-138q0-92-69-164t-201-84l0-132 130 0q20 0 20-20l0-60q0-20-20-20l-360 0q-20 0-20 20l0 60q0 20 20 20l130 0 0 132q-132 12-201 84t-69 164l0 138q0 20 20 20l30 0q20 0 20-20l0-138q0-66 59-123t191-57 191 57 59 123l0 138q0 20 20 20l30 0z m-300-238q-80 0-115 25t-35 55l0 158 300 0 0-158q0-30-35-55t-115-25z m150 520l0-212-300 0 0 212q0 30 35 55t115 25 115-25 35-55z" horiz-adv-x="640" />
<glyph glyph-name="video-alt" unicode="&#xe815;" d="m0-150l0 1000 883 0 0-1000-883 0z m45 119l109 0 0 82-109 0 0-82z m0 184l109 0 0 84-109 0 0-84z m0 185l109 0 0 82-109 0 0-82z m0 186l109 0 0 82-109 0 0-82z m0 183l109 0 0 83-109 0 0-83z m156-826l481 0 0 436-481 0 0-436z m0 467l481 0 0 436-481 0 0-436z m528-379l109 0 0 82-109 0 0-82z m0 184l109 0 0 84-109 0 0-84z m0 185l109 0 0 82-109 0 0-82z m0 186l109 0 0 82-109 0 0-82z m0 183l109 0 0 83-109 0 0-83z" horiz-adv-x="883" />
<glyph glyph-name="videocam-outline" unicode="&#xe816;" d="m209 455q0 51 51 51 53 0 53-51 0-53-53-53-51 0-51 53z m520 312q60 0 104-40t51-96l89 29q25 8 46-8t22-41l0-313q0-25-21-42t-47-8l-89 30q-8-56-51-96t-104-40l-104 0 0-54q0-62-46-108t-110-47-107 43-49 107l0 59-157 0q-63 0-110 46t-46 110l0 313q0 64 46 110t110 46l573 0z m-260-730q20 0 36 16t16 35l0 105-105 0 0-105q3-21 17-36t36-15z m260 209q22 0 37 15t15 37l0 313q0 21-15 36t-37 15l-573 0q-21 0-37-15t-15-36l0-313q0-21 15-37t37-15l573 0z m209 125l0 167-104-31 0-105q6 0 104-31z" horiz-adv-x="1041" />
<glyph glyph-name="picture" unicode="&#xe817;" d="m357 529q0-45-31-76t-76-32-76 32-31 76 31 75 76 32 76-32 31-75z m572-215v-250h-786v107l178 179 90-89 285 285z m53 393h-893q-7 0-12-5t-6-13v-678q0-8 6-13t12-5h893q7 0 13 5t5 13v678q0 7-5 13t-13 5z m89-18v-678q0-37-26-63t-63-27h-893q-36 0-63 27t-26 63v678q0 37 26 63t63 27h893q37 0 63-27t26-63z" horiz-adv-x="1071.4" />
<glyph glyph-name="picture-outline" unicode="&#xe818;" d="m339 559q-31 0-55-23t-24-56q0-31 23-54t56-23q31 0 54 22t23 55-23 56-54 23z m0 51q54 0 92-37t38-93-38-92-92-38-92 38-38 92 38 93 92 37z m156-416q-49 0-94 26t-88 27q-40 0-84-105l592 0q-18 85-46 145t-46 63q-34 0-96-70-25-27-41-42t-43-29-54-15z m234 209q46 0 85-78t55-157l16-78-729 0q3 9 7 23t18 49 32 63 43 50 57 23q55 0 101-26t81-25q25 0 54 24t53 54 57 53 70 25z m312 260l0-625q0-43-30-73t-73-31l-834 0q-44 0-74 31t-30 73l0 625q0 42 30 73t74 31l834 0q42 0 73-31t30-73z m-103-625l0 625-834 0 0-625 834 0z" horiz-adv-x="1041" />
<glyph glyph-name="quote-left" unicode="&#xe819;" d="m429 314v-214q0-45-32-76t-76-31h-214q-44 0-76 31t-31 76v393q0 58 23 111t61 91 91 61 111 23h35q15 0 26-11t10-25v-72q0-14-10-25t-26-10h-35q-59 0-101-42t-42-101v-18q0-22 16-38t37-16h125q45 0 76-31t32-76z m500 0v-214q0-45-32-76t-76-31h-214q-44 0-76 31t-31 76v393q0 58 23 111t61 91 91 61 111 23h35q15 0 26-11t10-25v-72q0-14-10-25t-26-10h-35q-59 0-101-42t-42-101v-18q0-22 15-38t38-16h125q45 0 76-31t32-76z" horiz-adv-x="928.6" />
<glyph glyph-name="quote-right" unicode="&#xe81a;" d="m429 671v-392q0-58-23-111t-61-91-91-62-111-22h-36q-14 0-25 10t-11 26v71q0 15 11 25t25 11h36q59 0 101 42t42 101v17q0 23-16 38t-38 16h-125q-44 0-76 31t-31 76v214q0 45 31 76t76 32h214q45 0 76-32t32-76z m500 0v-392q0-58-23-111t-61-91-91-62-111-22h-36q-14 0-25 10t-11 26v71q0 15 11 25t25 11h36q59 0 101 42t42 101v17q0 23-16 38t-38 16h-125q-44 0-76 31t-31 76v214q0 45 31 76t76 32h214q45 0 76-32t32-76z" horiz-adv-x="928.6" />
<glyph glyph-name="link" unicode="&#xe81b;" d="m294 116q14 14 34 14t36-14q32-34 0-70l-42-40q-56-56-132-56-78 0-134 56t-56 132q0 78 56 134l148 148q70 68 144 77t128-43q16-16 16-36t-16-36q-36-32-70 0-50 48-132-34l-148-146q-26-26-26-64t26-62q26-26 63-26t63 26z m450 574q56-56 56-132 0-78-56-134l-158-158q-74-72-150-72-62 0-112 50-14 14-14 34t14 36q14 14 35 14t35-14q50-48 122 24l158 156q28 28 28 64 0 38-28 62-24 26-56 31t-60-21l-50-50q-16-14-36-14t-34 14q-34 34 0 70l50 50q54 54 127 51t129-61z" horiz-adv-x="800" />
<glyph glyph-name="location" unicode="&#xe81c;" d="m495 715q81-81 81-197t-82-197q-8-9-21-23t-47-59-60-92-48-113-22-131q0 63-20 130t-49 115-58 90-49 62l-20 21q-82 81-82 197t82 197 197 82 198-82z m-199-308q47 0 80 33t33 78-33 79-80 33q-45 0-77-33t-33-79 33-78 77-33z" horiz-adv-x="594" />
<glyph glyph-name="pin" unicode="&#xe81d;" d="m911 574q0-61-31-113t-84-82q2-19 2-27 0-138-98-237t-237-98q-103 0-186 56l-259-170 170 259q-60 88-60 190 0 138 98 236t237 99q6 0 18-2t13-2q30 52 81 83t113 31q92 0 158-66t65-157z m-447-445q92 0 157 65t65 157q-26 0-57 8l-88-88q-32-32-78-32t-79 32-32 79 32 80l89 89q-9 31-9 55l0 1-1 0q-92 0-157-66t-66-158 66-157 158-65z m224 333q45 0 78 33t33 78-33 79-78 33-79-33-33-79 33-78 79-33z" horiz-adv-x="928" />
<glyph glyph-name="attach" unicode="&#xe81e;" d="m325-96q-127 0-217 90t-90 218 90 217l311 303q63 64 158 64t157-64q65-66 65-158t-65-157l-279-274q-41-41-98-40t-99 42-41 98 41 98l108 108 79-78-109-109q-7-7-7-19 0-13 7-21 19-19 40 0l279 274q33 32 33 79t-33 78q-31 31-79 31t-79-31l-311-303q-56-57-56-138t57-138q55-56 138-56t138 56l139 139 80-79-140-140q-90-90-217-90z" horiz-adv-x="817" />
<glyph glyph-name="play" unicode="&#xe81f;" d="m18 797l670-446-670-448 0 894z" horiz-adv-x="705" />
<glyph glyph-name="eye" unicode="&#xe820;" d="m465 685q68 0 140-34t124-82 95-97 64-83l23-34q-9-14-24-37t-63-81-97-103-121-82-141-36-140 34-124 85-96 100-64 86l-23 34q8 14 23 36t63 79 98 101 122 79 141 35z m0-558q92 0 158 65t65 158-65 158-158 66-158-66-66-158 66-158 158-65z m-112 223q0 112 112 112t111-112-111-111-112 111z" horiz-adv-x="928" />
<glyph glyph-name="heart" unicode="&#xe821;" d="m508-66q-17 0-29 9-26 17-85 58t-154 112-134 110q-106 106-106 264 0 116 82 198t198 82q143 0 228-118 38 55 99 86t129 32q117 0 198-82t81-198q0-158-106-264-38-38-133-110t-155-113-83-57q-13-9-30-9z m-228 729q-72 0-124-51t-52-125q0-114 76-190 79-79 328-248 248 169 327 248 76 76 76 190 0 73-51 125t-124 51q-73 0-125-51t-51-125q0-22-16-37t-36-15-37 15-15 37q0 73-52 125t-124 51z" horiz-adv-x="1015" />
<glyph glyph-name="heart-filled" unicode="&#xe822;" d="m456 487q0 95-67 161t-161 67-162-67-66-161q0-137 91-229 37-36 128-104t164-118l73-50q282 190 364 272 91 92 91 229 0 95-66 161t-161 67-161-67-67-161z" horiz-adv-x="911" />
<glyph glyph-name="plus" unicode="&#xe823;" d="m550 400q30 0 30-50t-30-50l-210 0 0-210q0-30-50-30t-50 30l0 210-210 0q-30 0-30 50t30 50l210 0 0 210q0 30 50 30t50-30l0-210 210 0z" horiz-adv-x="580" />
<glyph glyph-name="download-cloud" unicode="&#xe824;" d="m688 685q92 0 158-65t65-158-65-158-158-65l-167 0 0-167 111 0-168-169-166 169 111 0 0 167-168 0q-92 0-157 65t-66 158 66 158 157 65q11 0 30-2 29 52 81 83t112 31q60 0 113-31t81-83q19 2 30 2z m0-334q45 0 78 33t33 78-33 79-78 33-79-33-33-79l-112 0q0 109 90 178-33 45-90 45-45 0-78-33t-33-78q0-21 7-39l-104-39q-15 36-15 77-44-2-77-34t-34-77 33-78 78-33l447 0z" horiz-adv-x="928" />
<glyph glyph-name="facebook" unicode="&#xe825;" d="m500 644l-142 0q-14 0-25-15t-11-37l0-102 178 0 0-148-178 0 0-442-170 0 0 442-152 0 0 148 152 0 0 86q0 94 59 159t147 65l142 0 0-156z" horiz-adv-x="500" />
<glyph glyph-name="twitter" unicode="&#xe826;" d="m920 636q-36-54-94-98l0-24q0-130-60-250t-186-203-290-83q-160 0-290 84 14-2 46-2 132 0 234 80-62 2-110 38t-66 94q10-4 34-4 26 0 50 6-66 14-108 66t-42 120l0 2q36-20 84-24-84 58-84 158 0 48 26 94 154-188 390-196-6 18-6 42 0 78 55 133t135 55q82 0 136-58 60 12 120 44-20-66-82-104 56 8 108 30z" horiz-adv-x="920" />
<glyph glyph-name="linkedin-squared" unicode="&#xe827;" d="m132 61h129v387h-129v-387z m138 507q-1 29-21 48t-51 19-53-19-21-48q0-29 20-48t52-19h0q33 0 53 19t21 48z m326-507h129v222q0 86-41 130t-108 44q-75 0-116-65h1v56h-129q2-37 0-387h129v216q0 22 4 32 8 19 25 33t41 14q65 0 65-88v-207z m261 557v-536q0-66-47-113t-114-48h-535q-67 0-114 48t-47 113v536q0 66 47 113t114 48h535q67 0 114-48t47-113z" horiz-adv-x="857.1" />
<glyph glyph-name="gplus" unicode="&#xe828;" d="m48 572q0 58 25 102t56 65 69 34 56 15 26 2l230 0 0-4q0-22-78-36-28 0-38-6 40-20 54-56t14-96q0-102-68-158-38-38-38-54 0-18 50-64 104-90 104-178 0-140-116-194-68-34-150-34l-4 0-4 2q-2-2-4-2-24 0-54 5t-75 21-74 57-29 103q0 60 32 101t83 57 88 22 71 6l2 0q-16 22-24 47t-8 39l2 14-14 0q-64 0-110 30-74 44-74 160z m370-452q-4 52-43 84t-103 32l-16 0q-64-2-114-46-46-42-42-94t53-80 119-24q68 4 109 40t37 88z m-60 500q-30 108-122 108-12 0-20-2-40-12-58-62-16-50-2-106 14-52 47-85t71-33q12 0 18 2 42 12 63 65t3 113z m388-174l150 0 0-94-150 0 0-150-94 0 0 150-150 0 0 94 150 0 0 150 94 0 0-150z" horiz-adv-x="896" />
<glyph glyph-name="pinterest-circled" unicode="&#xe829;" d="m857 350q0-117-57-215t-156-156-215-58q-62 0-122 18 33 52 43 92 5 19 31 118 11-22 40-38t64-16q67 0 120 38t83 105 29 151q0 64-34 119t-96 91-142 36q-59 0-110-17t-86-43-61-61-37-72-12-75q0-58 22-102t66-62q16-7 21 11 1 4 4 17t5 17q3 13-6 24-29 34-29 84 0 84 58 145t153 61q84 0 131-46t48-119q0-95-39-161t-98-67q-34 0-54 24t-13 59q4 19 15 52t16 57 7 43q0 27-15 46t-43 18q-35 0-59-31t-24-80q0-40 14-68l-55-233q-10-39-7-99-115 51-186 157t-71 236q0 117 58 215t155 156 216 58 215-58 156-156 57-215z" horiz-adv-x="857.1" />
<glyph glyph-name="github-circled" unicode="&#xe82a;" d="m857 350q0-140-82-252t-211-155q-15-3-22 4t-7 17v118q0 54-29 79 32 3 57 10t53 22 45 37 30 58 11 84q0 68-44 115 21 51-5 114-15 5-45-6t-51-25l-21-13q-52 15-107 15t-108-15q-8 6-23 15t-47 22-48 7q-24-63-4-114-44-47-44-115 0-47 12-83t29-59 45-37 52-22 57-10q-22-20-27-58-12-5-25-8t-32-3-36 12-31 35q-11 18-27 29t-28 14l-11 1q-12 0-16-2t-3-7 5-8 7-6l4-3q12-6 24-21t18-29l5-13q8-21 25-34t37-17 39-4 31 2l13 3q0-22 0-50t1-30q0-10-8-17t-22-4q-129 43-211 155t-82 252q0 117 58 215t155 156 216 58 215-58 156-156 57-215z" horiz-adv-x="857.1" />
<glyph glyph-name="behance" unicode="&#xe82b;" d="m0-150l0 1000 1000 0 0-1000-1000 0z m156 158l256 0q49 2 80 32 31 33 31 84 0 46-21 74-18 23-51 31l0 4q29 10 45 29 20 28 20 71-2 44-32 74-31 29-74 29l-254 0 0-428z m121 100l0 74 94 0q14-2 20-10 9-9 9-23l0-8q0-14-9-23-8-10-20-10l-94 0z m0 162l0 72 86 0q12 0 20-9t8-24l0-6q0-13-8-23t-20-10l-86 0z m250-98q0-43 12-76 12-31 34-53t54-32 72-11q78 2 117 36 41 33 41 91l-107 0q0-9-4-17-10-29-51-29-31 0-45 18t-13 54l220 0q0 62-11 97-10 32-32 53t-52 31-71 10q-37 0-67-11t-52-32-33-52-12-77z m75 194l189 0 0 70-189 0 0-70z m37-155q2 26 15 40t41 15q24 0 37-15t14-40l-107 0z" horiz-adv-x="1000" />
<glyph glyph-name="dribbble" unicode="&#xe82c;" d="m0 350q0 136 67 251t182 182 251 67 251-67 182-182 67-251-67-251-182-182-251-67-251 67-182 182-67 251z m83 0q0-156 105-275 48 94 152 179t203 107q-15 35-29 63-172-55-372-55-39 0-58 1 0-4 0-10t-1-10z m13 103q22-2 65-2 167 0 317 45-76 135-167 225-79-40-135-111t-80-157z m149-432q113-88 255-88 74 0 147 28-20 171-78 331-92-20-185-101t-139-170z m153 732q88-91 163-227 136 57 205 145-116 96-266 96-51 0-102-14z m199-298q15-32 34-81 74 7 161 7 62 0 123-3-8 136-98 242-65-97-220-165z m59-151q51-148 69-304 79 51 129 131t60 173q-73 5-133 5-55 0-125-5z" horiz-adv-x="1000" />
<glyph glyph-name="instagram" unicode="&#xe82d;" d="m749 849h-498c-138 0-249-111-249-248v-502c0-137 111-248 249-248h498c138 0 250 111 250 248v502c0 136-112 248-250 248z m157-750c0-86-70-156-157-156h-498c-87 0-157 70-157 156v324h197c-14-30-23-64-23-100 0-130 107-236 237-236 131 0 237 106 237 236 0 36-8 70-23 100h187v-324z m-499 224c0 54 44 98 98 98 54 0 98-44 98-98 0-54-44-98-98-98-54 0-98 44-98 98z m499 192h-264c-39 28-86 44-137 44-51 0-98-16-137-44h-274v86c0 86 70 156 157 156h498c87 0 157-70 157-156v-86h0z m-100 186h-85c-15 0-28-12-28-27v-86c0-15 13-27 28-27h85c16 0 28 12 28 27v86c0 15-12 27-28 27z" horiz-adv-x="1000" />
<glyph glyph-name="lastfm" unicode="&#xe82e;" d="m0 350q0 164 116 280t280 116q124 0 220-63t146-181q15-36 129-300 21-48 38-73t49-45 79-22l7 0q67 0 111 36 46 38 47 96 0 27-8 45t-29 32-41 22-59 20q-125 41-180 90t-55 135q0 91 58 146t156 54q127 0 191-115l-84-43q-45 62-112 62-46 0-76-28t-31-73q0-13 2-24t9-21 12-16 17-14 20-12 25-10 27-10 31-10 33-10q108-36 155-84t46-140q0-100-76-166-75-65-186-65l-3 0q-100 0-161 47t-103 140l-14 33-127 288q-33 77-104 124t-159 47q-119 0-203-84t-85-204 85-203 203-85q82 0 150 43t105 112l51-118q-55-68-135-107t-171-38q-164 0-280 116t-116 280z" horiz-adv-x="1329" />
<glyph glyph-name="rss" unicode="&#xe82f;" d="m184 93c0-51-43-91-93-91s-91 40-91 91c0 50 41 91 91 91s93-41 93-91z m261-85l-125 0c0 174-140 323-315 323l0 118c231 0 440-163 440-441z m259 0l-136 0c0 300-262 561-563 561l0 129c370 0 699-281 699-690z" horiz-adv-x="704" />
<glyph glyph-name="vimeo-squared" unicode="&#xe830;" d="m700 495q9 47-12 73-29 36-104 25-10-1-23-7t-32-17-36-27-33-39-25-51q44 4 63-9t15-55q-3-29-29-80-24-43-40-55-24-18-48 8-13 13-21 36t-11 40-5 47-5 40q-13 72-19 92-7 20-20 38t-28 23q-32 8-71-14-30-18-76-60t-69-56v-4q9-5 15-15t12-11q11-2 30 5t32 6 24-17q6-10 10-22t8-26 7-23q10-26 30-104 20-82 32-110 23-56 57-70 24-7 48-1t42 18q73 43 139 132 59 77 97 163t46 127z m157 123v-536q0-66-47-113t-114-48h-535q-67 0-114 48t-47 113v536q0 66 47 113t114 48h535q67 0 114-48t47-113z" horiz-adv-x="857.1" />
<glyph glyph-name="forrst" unicode="&#xe831;" d="m0-150l417 1000 417-1000-369 0 0 135 170 85-13 55-157-79 0 67 98 52-14 57-84-45 0 87-92 0 0-157-86 59-16-64 102-70 0-182-373 0z" horiz-adv-x="834" />
<glyph glyph-name="skype" unicode="&#xe832;" d="m920 281q18-52 18-103 0-129-89-221-90-92-216-92-58 0-113 22-19-2-46-2-188 0-321 135-133 136-133 326 0 29 4 57-24 55-24 122 0 128 88 218 90 92 217 92 68 0 126-27 14 1 43 1 187 0 320-136 131-138 131-327 0-20-5-65z m-447-180q88 0 145 40t57 114q0 69-52 106-32 19-60 29-7 1-104 26-53 13-69 34-9 9-9 20 0 23 26 36t57 14q66 0 89-54 10-16 13-21t13-11 25-6q20 0 35 15t15 36q0 40-44 79-52 41-140 41-82 0-137-35t-55-103q0-42 23-72t58-44q40-17 92-29 30-6 64-15 50-18 50-56 0-30-29-46t-67-16q-56 0-79 31-16 31-21 36-14 43-51 43-22 0-36-14t-14-34q0-35 23-67t55-49q53-28 127-28z" horiz-adv-x="938" />
<glyph glyph-name="picasa" unicode="&#xe833;" d="m474 850c-55 0-106-11-157-22l377-343-5 301c-83 49-152 64-215 64z m-235-56c-262-184-242-367-236-551l416 382-180 169z m520-55l3-558 142 5c66 262-18 422-145 553z m-569-413l-169-163c66-151 119-195 172-237l-3 400z m88-205l-2-244c362-90 500 58 602 242l-600 2z" horiz-adv-x="927.2" />
<glyph glyph-name="youtube-play" unicode="&#xe834;" d="m714 350q0 21-16 30l-286 179q-17 11-36 1-19-10-19-31v-358q0-21 19-31 9-4 17-4 11 0 19 5l286 179q16 9 16 30z m286 0q0-54-1-84t-4-76-13-82q-9-41-38-69t-70-32q-123-14-374-14t-374 14q-40 4-70 32t-39 69q-7 36-12 82t-4 76-1 84 1 84 4 76 13 82q9 41 38 69t70 32q123 14 374 14t374-14q40-4 70-32t39-69q8-36 12-82t4-76 1-84z" horiz-adv-x="1000" />
<glyph glyph-name="flickr" unicode="&#xe835;" d="m0 350q0 104 73 177t177 73 177-73 73-177-73-177-177-73-177 73-73 177z m552 0q0 104 73 177t177 73 177-73 73-177-73-177-177-73-177 73-73 177z" horiz-adv-x="1052" />
<glyph glyph-name="tumblr" unicode="&#xe836;" d="m527 108l44-132q-12-19-61-37t-99-18q-58-1-107 15t-79 41-53 59-31 67-9 66v304h-94v120q40 14 72 39t51 50 32 57 19 55 8 49q1 3 3 5t4 2h136v-237h186v-140h-186v-289q0-17 3-32t13-29 28-23 45-8q44 1 75 16z" horiz-adv-x="571.4" />
<glyph glyph-name="blogger" unicode="&#xe837;" d="m0 165l0 369q0 130 93 223t223 93l221 0q65-8 139-57t104-115q1-2 5-9t5-10 4-10 4-12 3-16 4-22 4-29q9-70 26-85 14-13 71-14t65-8l14-11 8-17 3-14-2-256q-1-130-93-223t-222-92l-363 0q-130 0-223 92t-93 223z m259 5q0-25 18-42t43-18l356 0q25 0 43 18t17 42-17 43-43 17l-356 0q-25 0-43-17t-18-43z m0 362q0-25 18-43t43-18l175 0q25 0 43 18t17 43-17 43-43 17l-175 0q-25 0-43-17t-18-43z" horiz-adv-x="996" />
<glyph glyph-name="delicious" unicode="&#xe838;" d="m0-150l0 501 501 0 0-501-501 0z m509 499l0 501 500 0 0-501-500 0z" horiz-adv-x="1009" />
<glyph glyph-name="digg" unicode="&#xe839;" d="m0 152l0 372q0 13 13 13l176 0 0 129q0 14 13 14l98 0 0-514q0-14-12-14l-288 0z m109 83l67 0q13 0 13 14l0 206-67 0q-13 0-13-14l0-206z m225-83l0 372q0 13 13 13l98 0 0-371q0-14-12-14l-99 0z m0 445l0 69q0 14 12 14l99 0 0-69q0-14-12-14l-99 0z m149-445l0 372q0 13 13 13l288 0 0-504q0-13-13-13l-288 0 1 69q0 14 12 14l176 0 0 49-189 0z m110 83l67 0q12 0 12 14l0 206-67 0q-12 0-12-14l0-206z m229-146q0 14 13 14l176 0 0 49-189 0 0 372q0 13 13 13l287 0 0-504q0-13-12-13l-288 0 0 69z m109 146l67 0q13 0 13 14l0 206-67 0q-13 0-13-14l0-206z" horiz-adv-x="1122" />
<glyph glyph-name="friendfeed" unicode="&#xe83a;" d="m717 850c-47 0-98-8-150-36-58 21-120 39-206 32-193-18-267-116-279-255-40-5-79-16-82-123-3-123 36-143 77-156l2-358c6-43-2-90 94-100l144-3c53-7 90 27 109 103 7-62 34-96 85-97l167 0c38 10 80 13 86 82l3 373 44-3c36 5 71 11 96 70l0 112c-7 46-19 40-32 50 34 8 70 11 82 94l-3 91c2 57-30 89-110 111-36 5-80 13-127 13z m-333-87c23 0 54-4 121-25l2-108c-35 12-65 26-89 23-76 3-83-35-87-75l0-77 193-2c4 102-23 232 146 254 73 10 141 1 192-21l-2-115c-27 22-62 29-100 34-104 14-80-79-85-148l139 0 0-102-139 0 2-460-153 4 0 456-200-4 0-452-153 0 4 452-75 0-2 115 81-5-2 32c3 74-3 202 156 222 20-1 33 1 51 2z" horiz-adv-x="957" />
<glyph glyph-name="wordpress" unicode="&#xe83b;" d="m0 350q0 136 67 251t182 182 251 67 251-67 182-182 67-251-67-251-182-182-251-67-251 67-182 182-67 251z m39 0q0-135 72-247t188-168l-220 603q-40-89-40-188z m75 253l30 0q48 0 123 6 12 1 18-8t1-19-16-11l-53-5 168-499 101 302-72 197q-24 3-48 5-12 1-16 11t2 19 17 8l121-6q49 0 123 6 12 1 18-8t1-19-16-11l-52-5 166-496 46 154q36 117 36 149 0 64-39 128-2 3-12 21t-14 24-9 19-8 23-2 21q0 33 23 58t55 24q1 0 3 0t3-1q-131 121-312 121-119 0-221-56t-165-152z m256-696q62-18 130-18 80 0 153 26l-3 6-142 389z m362 44q105 61 167 168t62 231q0 120-56 221 3-21 3-47 0-63-35-165z" horiz-adv-x="1000" />
<glyph glyph-name="stackoverflow" unicode="&#xe83c;" d="m0-150l0 395 64 0 0-329 493 0 0 329 66 0 0-395-623 0z m113 133l0 80 395 0 0-80-395 0z m2 146l6 80 393-27-6-80z m16 176l19 78 383-93-19-81z m62 205l41 71 340-200-41-70z m182 213l66 45 221-326-68-45z m250 117l82 10 47-391-80-9z" horiz-adv-x="754" />
<glyph glyph-name="foursquare" unicode="&#xe83d;" d="m558 608l21 108q2 13-5 22t-20 10h-397q-13 0-22-10t-8-20v-615q0-4 3 0l162 196q13 15 22 19t26 4h134q12 0 20 8t10 17q14 72 21 106 2 12-6 22t-21 11h-164q-16 0-26 11t-11 26v24q0 16 11 26t26 11h193q10 0 20 7t11 17z m127 124q-9-41-30-149t-39-195-19-97q-4-13-5-18t-8-19-14-18-21-12-33-5h-151q-7 0-12-6-5-5-238-275-12-14-33-16t-27 3q-30 12-30 54v787q0 31 21 57t67 27h495q53 0 71-30t6-88z m0 0l-88-441q2 9 19 97t39 195 30 149z" horiz-adv-x="714.3" />
<glyph glyph-name="xing" unicode="&#xe83e;" d="m333 478q-5-10-143-255-15-25-37-25h-133q-12 0-17 9t0 20l141 250q1 0 0 1l-90 155q-7 13 0 21 5 8 17 8h134q22 0 37-25z m450 358q6-9 0-21l-295-521v0l188-344q6-11 0-20-5-9-18-9h-133q-23 0-37 25l-189 348q10 18 296 525 14 25 36 25h135q12 0 17-8z" horiz-adv-x="785.7" />
<glyph glyph-name="sina-weibo" unicode="&#xe83f;" d="m732 348q118-38 118-136 0-102-127-197t-313-95q-160 0-285 78t-125 196q0 130 146 280 92 92 186 129t134-3q36-36 10-116-4-14 8-14l16 2q74 34 134 34t84-34q24-36-2-100-6-18 16-24z m-322-354q122 12 202 77t72 145q-10 80-100 128t-212 36-202-77-70-145q8-80 98-128t212-36z m586 488l0-2q0-14-11-24t-25-10-24 10-10 24q0 96-68 163t-162 67q-16 0-26 10t-10 26q0 34 36 34 124 0 212-87t88-211z m-140 4q4-14-4-27t-22-15q-34-4-42 28-8 38-36 66t-66 36q-34 8-26 40 8 36 42 28 58-12 100-55t54-101z m-528-210q48 10 88-12t48-62q10-40-19-77t-79-45q-48-10-88 12t-48 62 20 76 78 46z" horiz-adv-x="996" />
<glyph glyph-name="soundcloud" unicode="&#xe840;" d="m34 178q0-4-10-4-6 0-10 4l-14 70 14 72q4 4 10 4 10 0 10-4l16-72z m102-38q0-8-12-8t-12 8l-12 108 12 166q0 8 12 8t12-8l14-166z m102 2q0-10-14-10t-14 8l-10 108 10 222q0 10 14 10t14-10l12-222z m102 0q0-10-16-10t-16 10l-8 106 8 224q0 10 16 10t16-10l10-224z m102 2q0-12-18-12-16 0-18 12l-6 104 6 256q4 14 18 14 18 0 18-14l8-256z m72-12q-14 0-14 14l0 396q0 10 12 14 36 14 84 14 88 0 153-58t73-142q24 10 50 10 52 0 90-37t38-87q0-52-38-89t-90-37z" horiz-adv-x="1000" />
<glyph glyph-name="fivehundredpx" unicode="&#xe841;" d="m0 236l119 0q5-40 30-64t64-24q48 0 77 33t28 81q0 48-28 79t-75 31q-38 0-65-24t-51-25q-53 0-80 2 9 52 29 161t28 164l330 0 0-98-243 0q-14-71-24-134l3 0q17 21 51 32t65 11q113 0 160-103 24 60 72 94t111 34q49 0 91-19t66-42 63-66q3-3 5-5t4-4l4-5q35 40 50 56t46 40 62 35 70 9q90 0 145-60t55-152q0-93-55-156t-147-63q-116 0-226 131-7-7-39-38t-42-40-37-25-52-23-58-6q-63 0-111 33t-74 92q-62-128-203-128-95 0-156 48t-62 138z m515 30q0-42 26-68t67-26q75 0 155 95-34 35-48 49t-47 33-64 19q-39 0-64-31t-25-71z m389 0q27-29 46-45t49-33 61-16q43 0 68 28t24 70q0 42-25 70t-68 28q-25 0-49-11t-36-22-38-36-32-33z" horiz-adv-x="1262" />
<glyph glyph-name="slideshare" unicode="&#xe842;" d="m2 374q16 11 43-6l0 482 893 0 0-482q16 11 33 11t16-13q-6-18-21-37t-29-34-43-30-42-24-46-24-38-17q25-82 18-162-10-77-56-129t-120-55q-57 0-90 47-10 15-10 37l0 197q-6 0-19 5t-16 5l0-211q0-35-31-60t-69-24q-72 0-119 55t-56 131q-8 82 17 160-119 53-205 138-17 32-10 40z m94-40q8-3 25-12t26-13l699 8q29 14 39 19l0 461-789 0 0-463z m143 100q0 49 35 84t84 35 83-35 34-84-34-83-83-34-84 34-35 83z m279 0q0 49 35 84t84 35 83-35 34-84-34-83-83-34-84 34-35 83z" horiz-adv-x="987" />
<glyph glyph-name="android" unicode="&#xe843;" d="m0 201l0 269q0 26 19 45t44 18q26 0 45-18t18-45l0-269q0-26-18-44t-45-19-44 19-19 44z m173-100l0 418 574 0 0-418q0-26-18-44t-45-19l-448 0q-26 0-44 19t-19 44z m0 465l574 0q0 115-85 189t-202 74-202-74-85-189z m101 316q0 8 7 8 3 0 7-2l49-89-15-8q-48 88-48 91z m15-807q0 27 19 45t47 18q25 0 44-19t19-44l0-202q0-28-19-46t-47-17q-26 0-44 18t-19 45l0 202z m5 620q0 16 12 28t28 11 28-11 11-28q0-17-11-28t-29-12q-16 0-27 12t-12 28z m208-620q0 27 20 45t46 18q26 0 45-18t18-45l0-202q0-28-19-46t-47-17q-26 0-44 18t-19 45l0 202z m45 620q0 16 12 28t28 11 28-11 11-28q0-17-12-28t-28-12-27 12-12 28z m36 104q2 3 14 29t24 44 18 18 7-9l0-2-48-89z m211-598l0 268q0 26 19 45t44 19 45-19 18-45l0-268q0-26-18-44t-45-19-45 19-18 44z" horiz-adv-x="920" />
<glyph glyph-name="apple" unicode="&#xe844;" d="m777 172q-21-70-68-139-72-110-144-110-27 0-78 18-48 18-84 18-34 0-79-19-46-19-74-19-85 0-168 145-82 146-82 281 0 127 63 208 63 81 159 81 40 0 98-17 58-17 77-17 25 0 80 19 57 19 97 19 66 0 119-36 29-20 58-56-45-37-64-66-36-52-36-115 0-70 38-125t88-70z m-209 655q0-34-17-76-16-42-52-77-30-30-60-41-20-6-58-9 2 83 44 143 41 60 139 83 1-2 2-6t1-6q0-3 0-6t1-5z" horiz-adv-x="785.7" />
<glyph glyph-name="windows" unicode="&#xe845;" d="m381 289v-364l-381 53v311h381z m0 414v-367h-381v315z m548-414v-439l-507 70v369h507z m0 490v-443h-507v373z" horiz-adv-x="928.6" />
<glyph glyph-name="vkontakte" unicode="&#xe846;" d="m1070 560q13-36-84-164-13-18-36-48-44-56-50-73-10-23 7-45 10-12 46-46h0l1 0 0-1 1-1q79-73 107-123 2-3 4-7t3-15 0-19-14-15-33-7l-143-3q-13-2-31 3t-29 12l-11 7q-17 12-39 36t-38 43-34 32-32 9q-1 0-4-2t-10-8-12-16-9-29-4-44q0-8-2-15t-4-10l-2-3q-10-11-30-12h-64q-40-3-81 9t-74 29-57 37-40 32l-14 14q-5 5-15 16t-40 51-59 84-68 118-73 152q-4 9-4 15t2 9l2 3q9 11 32 11l153 1q7-1 13-4t9-4l3-2q9-6 13-18 11-28 26-58t23-45l9-16q16-34 31-58t27-38 23-22 19-8 15 3q1 1 3 3t7 12 7 26 5 46 0 69q-1 23-5 41t-7 26l-4 6q-14 19-47 24-8 2 3 14 9 10 21 17 29 14 133 13 46-1 75-7 12-3 19-8t12-13 5-18 2-26 0-30-2-40 0-46q0-6-1-23t0-27 2-22 6-22 13-14q4-1 9-2t15 6 21 19 29 38 38 60q33 58 60 125 2 6 5 10t6 6l2 2 3 1t8 2 11 0l160 1q22 3 36-1t17-10z" horiz-adv-x="1071.4" />
<glyph glyph-name="myspace" unicode="&#xe847;" d="m0 175l0 350 140 0 0-207 805 0 0 207 141 0 0-350-1086 0z" horiz-adv-x="1086" />
<glyph glyph-name="meetup" unicode="&#xe848;" d="m0 390q0 35 2 105 24 8 48 8l18 0q17-23 40-70t31-61q2 7 8 37t10 42 11 37 16 40 19 31q28-5 46-5 6 0 11 1 24-54 46-163t38-155q-1 0-4 1l-3 1q-9 0-26-5t-22-7q-40 101-62 203-15-26-15-89t-11-88l-5 2q-8 0-22-2t-21-2l-18 0q-27 48-57 89-3-6-3-15t3-26 2-25l-1-12q-30-15-52-15-7 0-10 1-17 56-17 142z m355-76q0 27 8 58t28 57 47 26q10 0 28-5t23-6q9-40 9-81 0-28-6-55-12 4-38 5t-37 3q-5-20-5-37 0-21 10-37t30-16q9 0 26 5t26 5q17 0 23-14-42-16-82-16-46 0-68 30t-22 78z m58 28l8 1q3 0 8-2t7-2l7 3q2 14 2 22 0 18-5 40-22-25-27-62z m110-54q0 123 78 182 32-3 60-23-1-17-8-67-5-39-5-65l0-14q-20-2-29-2-8 0-43 5-5-12-5-23 0-22 17-37t39-16q26 0 41 23 18-6 21-17-22-21-63-21-37 0-70 20t-33 55z m56 43q4-6 14-6l9 0q9 19 9 49 0 13-6 39-3-8-10-25t-11-30-5-27z m99 19q-2 26 23 26 6 0 18-1t17-1q3 15 3 31 0 29-7 87t-8 86q0 43 10 72 5-3 27-5t40-25q-6-26-6-67 0-20 4-81 2-35 2-61 0-20-1-34l6 0q7 0 9 6t2 13 4 6q8 0 19-8t22-22 15-16q-9-7-40-9t-39-4q-1-12-1-36 0-16 1-33t1-38 1-33q-8-1-23-2t-22-2l0 20q0 21-3 57-4 44-4 61-6 2-32 4t-38 9z m215 8q0 20 2 58 11-1 20-5t21-10 18-10l-1-27q0-59 9-116 19 7 31 23t17 42 5 42 2 44l0 11q3-1 9-1 20-2 49-25 0-3 1-9t0-10q0-15-4-30t-7-22-15-25-14-23q-15-12-34-42-21-7-38-7-71 0-71 142z m200-108q7 6 24 10 0 3 1 9 4 35 7 57t13 59 22 59 35 40 53 17q34 0 76-24 17-37 17-75 0-66-46-119t-113-68q-2-32-2-48 0-73 18-117-8 2-37 2-15 0-22 2-9 21-16 96t-30 100z m90 25q39 10 66 48t26 79q0 30-15 56-23-21-39-55t-23-60-15-68z" horiz-adv-x="1341" />
<glyph glyph-name="cart" unicode="&#xe849;" d="m0 704q0 20 13 33t33 13l235 0q16 0 29-9t16-26l24-98 674 0 7 21q10 32 43 32 9 0 13-2 15-4 24-16t9-27q0-5-2-13l-118-393q-4-15-16-24t-27-9l-559 0q-16 0-28 10t-17 25l-108 438-199 0q-19 0-32 13t-14 32z m372-178l62-248 489 0 2 9 72 239-625 0z m42-484q0 38 28 65t65 27 65-27 27-65-27-65-65-27-65 27-28 65z m65 406l166 0 0-92-146 0z m245-92l1 92 162 0-24-92-139 0z m37-314q0 38 28 65t65 27 65-27 27-65-27-65-65-27-65 27-28 65z" horiz-adv-x="1120" />
<glyph glyph-name="reddit" unicode="&#xe84a;" d="m0 353q0 62 50 106t112 44q62 0 105-36l5 0q134 82 335 82l5 4 70 267 242-36q0-1 2-1 1 0 0 1 2 1 12 16t14 18q34 32 82 32 49 0 83-32t33-82-33-84-83-35q-57 0-87 39t-30 96q-2-1-97 13t-110 17l-3 0q-2-2-16-53t-30-109-18-64l0-3 5-4q72 0 148-20t130-58l3-2q1 1 2 1t2 1q25 18 36 25t29 13 43 6q68 0 116-48t48-117q0-47-26-86t-70-60q0-195-260-303-41-18-56-23-32-10-91-19t-93-9q-120 0-231 35-2 2-72 38-95 51-152 116t-58 156l-5 0q-33 17-59 50l-9 12q-15 27-19 46t-4 50z m34-12q0-66 57-112 5 59 48 116t101 101q-37 26-82 26-49 0-86-40t-38-91z m102-146q0-54 31-104t80-85 102-60 105-34q75-14 146-14 123 0 233 39t185 123l-3 0q30 38 43 69t13 72q0 54-26 103t-70 84-92 61-100 38q-85 23-181 23-74 0-151-18t-150-54-119-99-46-144z m186 73q0 37 23 60t59 22 62-22 25-60q0-36-25-60t-62-24-59 24-23 60z m36-164l44 0q25-45 80-68t111-24q58 0 110 24t84 68l41 0q-25-62-93-96t-142-34q-72 0-141 35t-94 95z m336 164q0 38 23 60t61 22q34 0 58-24t24-58-24-59-58-25q-37 0-60 24t-24 60z m255 468q0-35 25-60t60-25q36 0 59 25t23 60q0 34-24 58t-58 24-59-24-26-58z m14-281q55-36 95-92t56-120q59 43 59 96 0 58-35 100t-93 42q-45 0-82-26z" horiz-adv-x="1205" />
<glyph glyph-name="stumbleupon-circled" unicode="&#xe84b;" d="m480 830q198 0 339-140t141-340q0-198-141-339t-339-141q-200 0-340 141t-140 339q0 200 140 340t340 140z m0-368q26 0 26-26l0-30 34-18 52 18 0 30q0 46-33 79t-79 33-80-33-34-79l0-160q0-26-26-26t-26 26l0 68-88 0 0-68q0-46 34-79t80-33 79 33 33 79l0 160q0 26 28 26z m252-186l0 68-86 0 0-68q0-26-26-26-28 0-28 26l0 68-52-16-34 16 0-68q0-46 33-79t81-33q46 0 79 33t33 79z" horiz-adv-x="960" />
<glyph glyph-name="path" unicode="&#xe84c;" d="m0 465q4 172 131 278 135 105 334 107 209-4 336-105 62-53 95-127t34-153q-4-164-125-263-127-100-330-102l0-60q-2-57-34-104t-80-70q-33-16-72-16-47 0-94 24l0 173q41-29 77-19 33 14 33 49l0 480 170 0 0-299q58 0 111 12 80 20 125 59 59 56 59 136 0 116-96 176-88 51-209 51-127-4-211-55-45-29-69-75t-25-97q8-105 47-142l-107-115q-47 46-75 121-23 78-25 136z" horiz-adv-x="930" />
<glyph glyph-name="dropbox" unicode="&#xe84d;" d="m0 311l214 163-214 162 311 203 203-174 208 174 302-193-198-165 198-170-307-185-203 156-203-156z m213-251l0 57 94-55 203 155 1-1 0-355z m5 416l294-185 296 196-294 169z m293-615l1 355 2 1 202-155 100 60 0-63z" horiz-adv-x="1024" />
<glyph glyph-name="paper-plane" unicode="&#xe84e;" d="m0 191q-2 18 14 28l937 625q8 6 18 6t18-6q15-10 13-31l-156-938q-4-13-16-21-7-4-15-4-6 0-12 2l-303 121-64-107q-10-16-28-16t-27 16l-115 201-244 97q-18 8-20 27z m98 11l189-77q2-2 5-3l3-2 527 564z m221-104l87-152 504 787z m183-62q12-2 20-4l265-108 125 748z" horiz-adv-x="1000" />
<glyph glyph-name="paper-plane-1" unicode="&#xe84f;" d="m894 720q14 4 22-3t4-19q-2-6-72-310t-74-316q-2-14-14-19t-24 1l-248 134-30 16 22 26q388 420 394 426 4 4-1 9t-9 1l-550-402-112 44-190 76q-12 4-12 12t12 12q8 4 441 157t441 155z m-582-728l0 204 160-82q-130-116-142-128-18-14-18 6z" horiz-adv-x="921" />
<glyph glyph-name="deviantart" unicode="&#xe850;" d="m0 143q2 49 19 94t52 92 112 81 178 47l2-43q-93-13-138-64t-65-133l207 0-6 340 114 0 0-84q248 4 386-79t135-251l-471 0 2 230q63 4 106-7l0-145 211-2q-12 49-34 87t-51 60-64 36-72 18-75 7-73-1l0-283-475 0z" horiz-adv-x="996" />
<glyph glyph-name="grooveshark" unicode="&#xe851;" d="m0 350q0 136 67 251t182 182 251 67 251-67 182-182 67-251-67-251-182-182-251-67-251 67-182 182-67 251z m129 0q0-65 36-77 5-2 17-4 42-1 85 40 41 36 58 90 25 77 10 200-2 12-2 17-3 6 0 9 1 3 13-1 38-10 78-29 46-21 102-70 45-39 87-89 33-39 80-104 41-57 88-77 29-10 48-7t29 20 15 37 4 45q0 48-12 96-3 12-8 28-14 43-41 84-52 79-135 124t-178 45q-66 0-125-22-80-28-140-89t-89-142q-1-5-4-14t-5-14q-12-50-11-96z" horiz-adv-x="1000" />
<glyph glyph-name="spotify" unicode="&#xe852;" d="m0 350q0 136 67 251t182 182 251 67 251-67 182-182 67-251q0-101-38-192t-107-160q-60 73-145 114t-183 41q-107 0-199-49t-151-135q-83 71-130 170t-47 211z m164 144q0-17 12-29t30-13q6 0 9 1 144 58 298 58t298-58q1 0 4 0t5-1q17 0 30 13t12 29q0 25-23 37-159 63-326 63-170 0-329-64-20-13-20-36z m46-149l6-16q8-13 23-13 3 0 9 2 127 55 265 55 139 0 267-56 4-2 7-2 15 0 23 13l5 17q0 13-10 21-138 62-292 62-153 0-293-62-10-10-10-21z m48-144q10-25 31-16 108 51 224 51 112 0 219-48 24-13 35 12 5 13 0 23t-14 15q-106 53-240 53-128 0-244-55-19-10-11-35z m61-317q37 48 92 76t116 28q114 0 193-86-104-52-220-52-94 0-181 34z" horiz-adv-x="1000" />
<glyph glyph-name="steam" unicode="&#xe853;" d="m0 470q0 55 39 94t93 39q47 0 84-29t46-75l502-202q32 19 68 19 2 0 7 0t7-1l110 159q1 73 53 125t125 51q74 0 126-52t52-126-52-126-126-52l-170-124q-5-51-43-85t-89-35q-48 0-84 30t-46 75l-502 201q-32-19-68-19-55 0-93 39t-39 94z m35 0q0-40 29-68t68-29q9 0 21 2l-41 16 0 1q-28 13-40 42-6 14-6 28 0 15 6 30 12 30 40 42 15 7 31 6 13 0 27-5l0 1 49-20q-29 52-87 52-40 0-68-28t-29-70z m710-333q29-52 87-52 40 0 69 29t29 69q0 40-28 69t-70 28q-14 0-21-2l40-16q30-12 43-42 7-15 7-30 0-14-6-29-12-31-42-43-15-6-30-6-14 0-29 6-8 3-24 10t-25 9z m270 335q0-49 35-84t84-35q50 0 85 35t35 84-35 84-85 35q-49 0-84-35t-35-84z m25 1q0-40 28-68t67-28q39 0 67 28t28 68q0 39-28 67t-67 28q-40 0-67-28t-28-67z" horiz-adv-x="1312" />
<glyph glyph-name="quora" unicode="&#xe854;" d="m0 399q0 122 60 226t161 165 223 60q184 0 315-132t130-319q0-119-57-220t-154-163q1-2 4-6t11-17 21-22 33-21 45-17l0-76q-36-7-67-7-50 0-85 18-56 29-91 94-48-13-105-13-120 0-222 61t-162 164-60 225z m221-59q0-116 67-198t160-83q26 0 52 8-2 3-5 9t-15 18-23 24-31 19-37 10l0 88q10 1 20 1 119 0 203-90 63 81 63 194l0 116q0 116-66 199t-161 82-160-82-67-199l0-116z" horiz-adv-x="889" />
<glyph glyph-name="angellist" unicode="&#xe855;" d="m0 136q0 63 28 98 23 31 74 45-16 40-16 59 0 33 35 70 37 35 69 35 17 0 40-9-48 137-69 208-24 81-24 115 0 48 24 75 25 28 67 28 72 0 173-295l17-49q6 15 12 33 100 292 180 292 40 0 63-27 24-27 24-70 0-28-24-113-21-73-66-200 57-14 82-54 27-43 27-133 0-178-106-291-108-113-274-113-66 0-127 24-59 21-107 66-51 48-76 99-26 54-26 107z m65 5q0-25 14-59 13-32 39-67 41-53 97-81 57-28 129-28 129 0 217 97 87 96 87 243 0 46-6 71-5 22-19 34-27 23-106 40-79 18-168 18-22 0-28-6-7-3-7-20 0-41 46-58 50-21 165-21l28 0q16 0 23-11 8-8 11-31-17-17-55-31-36-13-53-26-40-29-64-69-23-39-23-74 0-21 10-51 11-33 11-43l0-6-4-15q-44 3-64 41-17 32-19 82-3-1-12-1l-11 0q1-5 1-12 0-30-23-51t-54-21q-47 0-95 45-48 46-48 90 0 8 3 16 1 7 16 22 25-31 34-43 42-59 76-59 9 0 17 6 6 6 6 10 0 8-12 29-8 15-37 53-28 36-45 50-15 14-22 14-19 0-37-22t-18-55z m90 191q0-13 16-45 14-27 45-68 31-40 56-62 24-20 36-20 7 0 14 7 7 8 7 16 0 12-18 58-21 51-46 92-22 35-39 49-16 15-31 15-11 0-25-15-15-15-15-27z m45 432q0-34 24-107 22-71 66-190 10 6 28 6 1 0 7 0t10-1q4 0 26-2l-69 200q-28 80-44 104-13 21-26 21-9 0-15-8-7-9-7-23z m166-510q9-23 19-50 20 23 40 38-5 1-15 3t-15 2q-20 4-29 7z m105 204l67-12q45 124 69 199 25 81 25 96 0 16-7 25-4 7-15 7-14 0-31-27-19-29-43-101z" horiz-adv-x="716" />
<glyph glyph-name="icq" unicode="&#xe856;" d="m355 823c-31 7-57 4-84-10-29-18-46-47-53-86-7-41 0-80 21-120l10-14-34 11c-42 10-82 4-121-17-41-21-66-50-83-91-16-40-15-78 5-113 9-16 21-28 33-37 17-17 38-27 63-31l10-3-21-18c-20-17-31-38-38-59-7-26-4-51 10-75 7-11 14-21 25-28 11-10 25-17 42-18 31-7 64-7 99 4l-25-42-7-19c-15-45-10-84 11-125 10-16 21-30 32-43 17-15 38-25 64-32 42-11 84-10 125 11 40 21 65 55 78 98l1 8c27-30 52-49 80-56 29-9 57-7 82 10 24 14 41 38 50 67 7 31 7 62 0 97 14-9 28-16 45-21 45-14 84-12 124 9 38 21 63 55 76 99 11 42 8 83-13 122l-7 11c-11 17-22 34-39 46-14 9-31 16-47 24 44 21 75 50 89 88 10 31 7 57-7 82l0 3c-17 28-40 46-75 56-21 5-45 5-66 3l-47-10 16 36c14 45 10 88-14 129l-4 7c-22 36-53 57-95 68-44 11-84 7-124-14-39-21-68-54-80-96l0-3-2-10-5 10-14 26c-23 35-51 56-86 66z m359-85c7-14 11-31 11-49l-4-31c-5-16-13-30-21-42l-127-156c-13 10-27 17-41 24l-14 160-1 56 1 14c7 28 27 50 52 64 26 14 54 17 81 7 29-7 50-23 63-47z m-437-28c1 25 11 42 28 52 9 7 21 7 33 2 25-8 46-26 63-61 7-14 14-28 17-45l28-167-21-7-125 137-7 14c-12 26-19 50-16 75z m-76-165l38-15 124-91c-11-14-18-28-22-42l-204-25-14 2c-25 5-42 16-53 37-11 21-11 42-3 64 10 26 28 47 55 59 25 14 51 18 79 11z m134-230l10-28 4-10c-21-18-37-35-54-51l-42-35-11-7c-27-13-50-17-74-14-21 1-38 8-45 21l-4 16 3 12c7 21 25 43 58 58 17 7 31 14 42 17l113 21z m440 229c25 11 49 14 74 11 24-3 41-14 50-31l5-18-2-15c-10-25-31-45-67-60-14-7-29-10-46-13l-174-21-2 10-3 4 5 7 143 119 17 7z m-360-134c17 15 40 25 66 25 26 0 50-10 65-25 20-20 29-41 29-67s-9-49-29-66c-18-18-39-28-65-28-26 0-49 10-66 28-18 17-28 41-28 66s10 47 28 67z m33-205c2-48 7-98 14-153l0-57-2-14c-10-25-26-46-52-58-25-14-52-17-77-10-29 7-50 24-61 47-7 14-13 31-13 48l7 32c3 14 10 28 22 40l118 141c14-7 28-14 44-16z m108 19l59-61 37-45 7-14c13-24 20-47 17-74-3-25-11-43-28-50-10-7-21-7-33-6-26 7-48 28-63 62l-17 47-21 122 24 9 18 10z m64 87l159 14 56 1 14-1c22-7 41-20 53-41 14-15 21-36 21-60l-4-29c-7-28-24-49-48-60-26-14-51-17-79-7-17 4-29 11-38 22l-148 123 9 21 5 17z" horiz-adv-x="981" />
<glyph glyph-name="mail" unicode="&#xe857;" d="m834 688q44 0 74-30t30-74l0-468q0-43-30-74t-74-30l-730 0q-44 0-74 30t-30 74l0 468q0 44 30 74t74 30l730 0z m-421-454l-82 72-190-190 655 0-190 190-81-72q-24-20-56-20t-56 20z m-309-82l187 189-187 163 0-352z m542 189l188-188 0 351z m188 243l-730 0 0-11 342-300q9-7 23-7t22 7l343 300 0 11z" horiz-adv-x="938" />
<glyph glyph-name="home" unicode="&#xe858;" d="m888 336q16-16 11-27t-27-11l-84 0 0-310q0-14-1-21t-8-13-23-6l-204 0 0 310-204 0 0-310-194 0q-28 0-35 10t-7 30l0 310-84 0q-22 0-27 11t11 27l400 402q16 16 38 16t38-16z" horiz-adv-x="900" />
<glyph glyph-name="doc-alt" unicode="&#xe859;" d="m632 797l279-278 0-616-221 186-223-186-225 186-224-185 0 893 614 0z m168-667l0 223-336 0 0 335-334 0 0-558 114 89 223-184 223 185z m-224 335l224 0q-21 21-111 110t-113 113l0-223z" horiz-adv-x="928" />
<glyph glyph-name="attach-1" unicode="&#xe85a;" d="m0 99q0 91 64 155l456 451q82 82 199 82t199-82 82-199-82-199l-344-342q-21-23-44-1t1 44l338 340q65 62 65 153t-65 156-155 64-153-64l-454-448q-44-45-44-109t45-110 111-46 109 45l457 451q27 27 27 66t-27 67-66 27-67-27l-341-344q-24-22-45 1t0 44l341 343q47 45 112 45t110-45 46-111-45-111l-457-449q-64-65-155-65t-154 64-64 154z" horiz-adv-x="1000" />
<glyph glyph-name="thumbs-up" unicode="&#xe85b;" d="m0-56l0 500q0 39 27 66t67 28l94 0q32 0 60-24 12 6 33 16 123 64 125 226 0 39 28 67t66 27q57 0 105-64t49-147q0-66-8-103 237-6 266-14 43-12 66-43t22-63l0-23q-2-39-27-68 17-34 11-75-7-54-41-86 16-37 0-84-17-58-52-82 7-27 0-54-6-18-14-34-33-60-111-60l-172 0q-92 0-186 21-92 22-127 30l-2 0q0 2-3 2l-4 0 0 2q-28-55-84-55l-94 0q-39 0-67 27t-27 67z m63 0q0-14 8-23t23-9l94 0q13 0 22 9t9 23l0 500q0 13-9 22t-22 9l-94 0q-14 0-23-9t-8-22l0-500z m31 47q0 19 13 33t34 14 33-14 14-33-14-34-33-13-34 13-13 34z m31 0q0-16 16-16t15 16-15 15-16-15z m125 3q0-23 27-27 22-6 145-35 88-20 172-20l172 0q41 0 56 28 6 15 8 23 6 12-2 28t-29 15l-49 0q-16 0-16 16t16 16l51 0q31 0 49 10t22 20 11 30q21 65-39 65l-63 0q-15 0-15 15t15 16l74 0q57 0 69 66 2 22-9 40t-42 19l-61 0q-15 0-15 15t15 16l63 0q61 0 62 45l0 21q0 38-37 47-45 12-337 12 19 59 24 84t5 80q0 57-32 103t-60 45q-31 0-31-31-2-92-46-173t-142-122q-2 0-4-1l-2-1q-25-8-25-33l0-432z" horiz-adv-x="1000" />
<glyph glyph-name="info-circled-alt" unicode="&#xe85c;" d="m0 350q0 95 37 182t100 149 149 100 183 37q95 0 182-37t149-100 100-149 37-182q0-95-37-182t-100-150-149-100-182-37q-96 0-183 37t-149 100-100 150-37 182z m117 0q0-71 28-137t75-112 112-75 137-28 136 28 112 75 75 112 28 137-28 136-75 112-112 75-136 28-137-28-112-75-75-112-28-136z m281 170q0 28 20 45t51 17q32 0 51-17t19-45-19-46-51-17q-32 0-51 17t-20 46z m5-402v299h132v-299h-132z" horiz-adv-x="937.5" />
<glyph glyph-name="warning-empty" unicode="&#xe85d;" d="m514 701q-49 0-81-55l-308-513q-32-55-11-95t87-40l625 0q65 0 87 40t-12 95l-307 513q-33 55-80 55z m0 105q106 0 169-107l308-513q63-105 12-199-52-93-177-93l-625 0q-123 0-177 93-53 92 11 199l309 513q62 107 170 107z m-69-652q0 69 69 69 67 0 67-69 0-67-67-67-69 0-69 67z m146 313q0-14-6-29l-71-179q-44 108-73 179-6 15-6 29 0 32 23 55t56 24 55-24 22-55z" horiz-adv-x="1026" />
<glyph glyph-name="plus-squared-alt" unicode="&#xe85e;" d="m643 404v-36q0-8-5-13t-13-5h-196v-196q0-8-5-13t-13-5h-36q-8 0-13 5t-5 13v196h-196q-8 0-13 5t-5 13v36q0 7 5 12t13 5h196v197q0 8 5 13t13 5h36q8 0 13-5t5-13v-197h196q8 0 13-5t5-13z m71-250v464q0 37-26 63t-63 26h-464q-37 0-63-26t-27-63v-464q0-37 27-64t63-26h464q37 0 63 26t26 64z m72 464v-464q0-67-47-114t-114-47h-464q-67 0-114 47t-47 114v464q0 66 47 113t114 48h464q66 0 114-48t47-113z" horiz-adv-x="785.7" />
<glyph glyph-name="minus-squared-alt" unicode="&#xe85f;" d="m643 404v-36q0-8-5-13t-13-5h-464q-8 0-13 5t-5 13v36q0 7 5 12t13 5h464q8 0 13-5t5-12z m71-250v464q0 37-26 63t-63 26h-464q-37 0-63-26t-27-63v-464q0-37 27-64t63-26h464q37 0 63 26t26 64z m72 464v-464q0-67-47-114t-114-47h-464q-67 0-114 47t-47 114v464q0 66 47 113t114 48h464q66 0 114-48t47-113z" horiz-adv-x="785.7" />
<glyph glyph-name="user-1" unicode="&#xe860;" d="m4-105q-14 43 25 70 119 78 291 116-84 105-119 255-10 55-11 122t23 149 66 138q84 105 223 105t222-105q43-57 67-138t22-149-11-122q-35-150-119-256 172-37 291-115 39-27 26-71t-61-44l-875 0q-21 0-38 13t-22 32z m60 17l875 0q-109 73-267 108l-79 16q-45-30-91-30t-92 30l-78-16q-160-35-268-108z m193 602q-13-103 16-208t96-186l10-14q56-65 123-65t123 65l9 14q67 82 96 186t16 208q-14 113-76 193t-168 80-168-80-77-193z" horiz-adv-x="1003" />
<glyph glyph-name="bookmark-empty" unicode="&#xe861;" d="m643 707h-572v-693l237 227 49 47 50-47 236-227v693z m7 72q12 0 24-5 19-8 29-23t11-35v-719q0-19-11-35t-29-23q-10-4-24-4-27 0-47 18l-246 236-246-236q-20-19-46-19-13 0-25 5-18 7-29 23t-11 35v719q0 19 11 35t29 23q12 5 25 5h585z" horiz-adv-x="714.3" />
<glyph glyph-name="bookmark-empty-1" unicode="&#xe862;" d="m0-56l0 906 609 0 0-1000-304 305-305-305 0 94z m63 62l242 243 242-243 0 782-484 0 0-782z" horiz-adv-x="609" />
<glyph glyph-name="vine" unicode="&#xe863;" d="m835 389v-111q-56-13-110-13-36-76-92-151t-102-120-71-60q-45-25-91 2-15 9-33 24t-48 47-57 72-60 102-59 136-51 176-39 217h158q14-121 39-222t58-177 68-131 78-109q94 94 160 227-79 40-124 122t-45 186q0 107 58 176t158 68q99 0 152-59t53-166q0-89-32-159-4-1-11-2t-26-1-35 3-34 14-28 29q17 58 17 103 0 48-16 73t-44 25q-30 0-48-27t-18-79q0-103 59-163t149-60q34 0 67 8z" horiz-adv-x="857.1" />
<glyph glyph-name="reply-outline" unicode="&#xe864;" d="m938-1q0-22-15-37t-38-15q-26 0-42 24-60 93-139 133t-183 48l0-75q0-42-31-73-30-30-74-30t-72 30l-329 322q-15 15-15 38t15 37l328 323q28 28 73 29t74-29q31-32 31-74l0-89q182-36 299-180t118-330l0-52z m-468 260q224-5 353-110-30 126-129 213t-231 103l-47 2 0 183-290-286 290-287 0 183q39-1 54-1z" horiz-adv-x="938" />
<glyph glyph-name="network" unicode="&#xe865;" d="m224 504q-22 0-42-10-48 52-92 128 54 74 128 118 92-38 152-82-6-16-6-32 0-6 4-22-62-48-116-104-16 4-28 4z m-98-98q0-34 20-60-60-114-80-232-66 106-66 236 0 110 50 206 38-62 84-112-8-24-8-38z m336 318q-28 0-50-14-58 42-114 70 84 30 162 30 120 0 230-62-76-14-162-50-26 26-66 26z m146-460q-160 24-290 112 4 20 4 30 0 24-14 52 38 44 98 90 26-20 56-20 14 0 38 8 94-108 134-240-16-14-26-32z m128-132q38 14 54 60 58 4 108 18-46-146-166-232 6 48 6 98 0 10-1 28t-1 28z m-150 66q-190-96-304-272-90 36-158 110 12 144 80 274 6-2 20-2 30 0 52 14 142-98 310-124z m184 492q150-136 150-340 0-22-4-66-64-18-130-24-24 56-88 60-48 146-148 264 10 20 10 42l0 10q100 42 210 54z m-136-544q14-10 32-18 2-18 2-52 0-80-14-144-86-42-194-42-58 0-112 12 110 160 286 244z" horiz-adv-x="920" />
<glyph glyph-name="tag-empty" unicode="&#xe866;" d="m344 557q0-36-25-61t-61-25-60 25-25 61 25 61 60 25 61-25 25-61z m-326 240l371 0 522-522-370 0 0-372-523 524 0 370z m329-100l-229 0 0-229 324-324 0 231 229 0q-63 62-193 192z" horiz-adv-x="928" />
<glyph glyph-name="tag" unicode="&#xe867;" d="m365 792q-109 0-185-76t-76-184 76-184l159-155 286-286 365 365q-369 369-441 444-76 76-184 76z m0 105q151 0 259-107 109-113 440-444 30-31 30-74t-30-74l-365-365q-30-30-74-30t-74 30l-270 270q-8 7-18 15l-157 157q-106 106-106 257t106 258q108 107 259 107z m0-286q-32 0-56-23t-23-56 23-55 56-22 55 22 23 55-23 56-55 23z m0 51q54 0 92-38t38-92-38-92-92-38-92 38-38 92 38 92 92 38z" horiz-adv-x="1094" />
<glyph glyph-name="eye-outline" unicode="&#xe868;" d="m469 559q-98 0-171-53-78-55-165-156 85-99 165-155 73-52 171-52t171 52q80 56 165 155-87 101-165 156-74 53-171 53z m0 104q132 0 231-72 60-42 119-103t89-99l30-39q-12-16-32-43t-83-91-123-107q-99-71-231-71-134 0-233 71-60 42-119 103t-88 99l-29 39q11 16 32 43t82 91 122 107q99 72 233 72z m0-260q21 0 37-16t15-37-15-36-37-15-37 15-16 36 16 37 37 16z m0-209q-65 0-111 45t-45 111 45 111 111 45 110-45 46-111-46-111-110-45z m0 261q-43 0-73-31t-31-74q0-42 30-73t74-31 74 31 30 73q0 44-31 74t-73 31z" horiz-adv-x="938" />
<glyph glyph-name="mic-outline" unicode="&#xe869;" d="m365 142q-86 0-147 61t-62 147l0 313q0 86 62 147t147 62 147-62 61-147l0-313q0-86-61-147t-147-61z m0 625q-44 0-74-31t-31-73l0-313q0-42 31-73t74-31q43 0 73 31t31 73l0 313q0 42-31 73t-73 31z m364-417q0-136-90-238t-223-122l0-56 157 0q21 0 36-16t16-37-16-36-36-16l-417 0q-21 0-37 16t-15 36 15 37 37 16l157 0 0 56q-134 19-224 122t-89 238l0 104q0 21 16 37t37 16 36-16 15-37l0-104q0-107 77-183t184-77 184 77 76 183l0 104q0 21 16 37t37 16 36-16 15-37l0-104z" horiz-adv-x="729" />
<glyph glyph-name="camera-outline" unicode="&#xe86a;" d="m885-66l-729 0q-65 0-110 46t-46 110l0 417q0 65 46 110t110 46l83 0 52 52q23 23 58 37t67 15l209 0q33 0 68-15t58-37l52-52 82 0q65 0 111-46t45-110l0-417q0-65-45-110t-111-46z m-729 625q-21 0-37-16t-15-36l0-417q0-21 15-37t37-15l729 0q21 0 37 15t16 37l0 417q0 21-16 36t-37 16l-104 0q-21 0-36 15l-67 68q-22 21-53 21l-209 0q-30 0-51-21l-67-68q-15-15-38-15l-104 0z m365-105q-53 0-92-38t-39-92 39-92 92-38 92 38 38 92-38 92-92 38z m0 53q77 0 129-54t53-129q0-75-54-129t-128-53q-76 0-129 53t-53 129q0 76 53 129t129 54z m313 16q27 0 47-20t20-49-19-48-48-19-49 20-20 47q0 29 20 49t49 20z" horiz-adv-x="1041" />
<glyph glyph-name="pin-outline" unicode="&#xe86b;" d="m856 554q30-30 30-73t-30-75q-16-16-36-24-106-51-144-125-51-102-51-246 0-45-29-74t-75-30q-47 0-75 30l-167 169-279-199 199 279-169 168q-20 18-27 49t5 64q27 65 96 65 146 0 246 50l11 7q69 37 118 141 7 20 21 34 30 30 74 29t74-31z m-273-250q53 107 196 175l-205 211q-69-146-176-200l-13-6q-120-57-281-57l416-416q0 168 63 293z" horiz-adv-x="886" />
<glyph glyph-name="feather" unicode="&#xe86c;" d="m60-138q-6-20-26-8-18 8-16 34 4 100 50 226-100 154-52 316 10-32 32-78t44-80 32-30q8 4 0 83t-11 166 25 157q22 44 80 94t104 70q-24-46-33-94t-4-78 21-32q12 0 84 120t106 122q46 4 114-29t82-65q12-24 0-79t-40-83q-44-44-146-62t-114-24q-16-10 12-34 54-48 176-20-56-80-136-114t-132-38-54-10q-4-24 49-54t101-14q-30-56-63-84t-54-35-76-11-85-8z" horiz-adv-x="698" />
<glyph glyph-name="left-open-big" unicode="&#xe86d;" d="m452-20q26-26 0-48-26-26-48 0l-392 394q-24 24 0 50l392 394q22 26 48 0 26-22 0-48l-358-372z" horiz-adv-x="465" />
<glyph glyph-name="right-open-big" unicode="&#xe86e;" d="m13-20l358 370-358 372q-26 26 0 48 26 26 48 0l392-394q24-26 0-50l-392-394q-22-26-48 0-26 22 0 48z" horiz-adv-x="465" />
<glyph glyph-name="up-open-big" unicode="&#xe86f;" d="m804 130l-372 358-370-358q-26-22-50 0-24 24 0 50l396 390q26 26 48 0l396-390q24-26 0-50-26-22-48 0z" horiz-adv-x="864" />
<glyph glyph-name="picture-1" unicode="&#xe870;" d="m856 518l-100 0-124 150-214-150-180 0q-52 0-90-39t-38-91l0-160-108 296q-10 38 22 52l680 248q36 10 50-24z m106-90q16 0 27-12t11-28l0-472q0-16-11-28t-27-12l-724 0q-16 0-27 12t-11 28l0 472q0 16 11 28t27 12l724 0z m-56-452l0 162-72 160-166-60-130-132-138 170-92-214 0-86 598 0z" horiz-adv-x="1000" />
<glyph glyph-name="videocam" unicode="&#xe871;" d="m0 100l0 500q0 39 27 66t67 28l594 0q39 0 66-28t27-66l0-39 84 84q20 17 45 17l27 0q26 0 44-18t19-44l0-500q0-27-19-45t-44-17l-27 0q-25 0-45 17l-84 84 0-39q0-39-27-66t-66-28l-594 0q-39 0-67 28t-27 66z m63 0q0-14 8-22t23-9l594 0q13 0 22 9t9 22l0 500q0 14-9 22t-22 9l-594 0q-14 0-23-9t-8-22l0-500z m687 156l31-31 125-125 31 0 0 500-31 0-156-156 0-188z" horiz-adv-x="1000" />
<glyph glyph-name="link-ext" unicode="&#xe872;" d="m786 332v-178q0-67-47-114t-114-47h-464q-67 0-114 47t-47 114v464q0 66 47 113t114 48h393q7 0 12-5t5-13v-36q0-8-5-13t-12-5h-393q-37 0-63-26t-27-63v-464q0-37 27-63t63-27h464q37 0 63 27t26 63v178q0 8 5 13t13 5h36q8 0 13-5t5-13z m214 482v-285q0-15-11-26t-25-10-25 10l-98 99-364-364q-5-6-13-6t-13 6l-63 63q-6 6-6 13t6 13l364 364-99 98q-10 11-10 25t10 25 26 11h285q15 0 25-11t11-25z" horiz-adv-x="1000" />
<glyph glyph-name="level-up" unicode="&#xe873;" d="m200 350l0-90-200 160 200 170 0-100 550 0q40 0 70-29t30-71l0-280-140 0 0 240-510 0z" horiz-adv-x="850" />
<glyph glyph-name="back-in-time" unicode="&#xe874;" d="m532 760q170 0 289-120t119-290-119-290-289-120q-138 0-252 88l70 76q82-60 182-60 126 0 216 90t90 216q0 128-90 218t-216 90q-124 0-213-86t-93-210l142 0-184-206-184 206 124 0q4 166 123 282t285 116z m-36-190l70 0 0-204 130-130-50-50-150 150 0 234z" horiz-adv-x="940" />
<glyph glyph-name="stopwatch" unicode="&#xe875;" d="m0 617l246 246 81-82-40-41 42-43q58 34 124 52v101h231v-101q99-26 178-90t124-158 45-200q0-94-36-180t-99-148-148-99-179-37-181 37-147 99-99 148-37 180q0 123 62 231l-44 44-41-41z m222-316q0-94 46-174t127-127 174-47 174 47 126 127 47 174-47 174-126 126-174 47-174-47-127-126-46-174z m118 130q0 24 16 41 17 17 41 17t41-17l140-140h198q24 0 41-17t16-41q0-25-17-40-17-18-40-18h-222q-3 0-11 1l-5 2q-1 0-3 1t-3 0q-1 1-3 2t-2 1l-5 3q-3 2-9 8l-157 156q-16 17-16 41z" horiz-adv-x="1031.7" />
<glyph glyph-name="star-empty" unicode="&#xe876;" d="m3 436q-12 31 16 50t91 18h242l74 222v1q14 45 33 68t40 23q20 0 39-23t33-68l1-1 73-222h242q63 0 91-18t16-50-64-68l-5-4-190-135 74-221 1-3q19-60 11-91t-40-32q-37 0-88 38l-2 2-3 1-189 136-192-137-3-2q-52-39-88-39-31 0-40 32t11 92l1 3 74 221-190 135-2 3-3 1q-51 37-64 68z m165-26l203-145-21-65-57-173 206 147 205-147-57 173-21 65 203 145h-251l-21 65-58 175-80-240h-251z" horiz-adv-x="997.6" />
<glyph glyph-name="star" unicode="&#xe877;" d="m2 460q11 37 101 37h225l69 207v1q19 56 44 75t49 0 43-75l1-1 68-207h226q58 0 85-17t14-47-59-63l-5-4-176-126 67-207 2-2q27-85-4-109t-105 29l-3 2-2 1-177 127-179-128-2-2q-73-52-105-29t-4 109l1 1v2l68 206-177 126-2 2-2 2q-73 52-61 90z" horiz-adv-x="931.2" />
<glyph glyph-name="down-circled" unicode="&#xe878;" d="m460 810q190 0 325-135t135-325-135-325-325-135-325 135-135 325 135 325 325 135z m0-820q148 0 254 106t106 254q0 150-106 255t-254 105-254-105-106-255q0-148 106-254t254-106z m90 554l0-206 112 0-202-190-202 190 112 0 0 206 180 0z" horiz-adv-x="920" />
<glyph glyph-name="file-pdf" unicode="&#xe879;" d="m819 638q16-16 27-42t11-50v-642q0-23-15-38t-38-16h-750q-23 0-38 16t-16 38v892q0 23 16 38t38 16h500q22 0 49-11t42-27z m-248 136v-210h210q-5 16-12 23l-175 175q-6 7-23 12z m215-853v572h-232q-23 0-38 15t-16 38v233h-429v-858h715z m-287 331q18-14 47-31 33 4 65 4 82 0 99-27 9-13 1-29 0-1-1-1l-1-2v0q-3-21-39-21-27 0-65 11t-72 29q-123-13-219-46-85-146-135-146-8 0-15 4l-14 6q0 1-3 3-6 6-4 20 5 23 32 51t73 54q8 5 13-3 1-1 1-2 29 47 60 110 38 76 58 146-13 46-17 89t4 71q6 22 23 22h12q13 0 20-8 10-12 5-38-1-3-2-4 0-2 0-5v-17q-1-68-8-107 31-91 82-133z m-322-229q30 13 77 88-29-22-49-47t-28-41z m223 513q-9-23-2-73 1 4 4 24 0 2 4 24 1 3 3 5-1 0-1 1t0 1-1 1q0 12-7 20 0-1 0-1v-2z m-70-368q76 30 159 45-1 0-7 5t-9 8q-43 37-71 98-15-48-47-110-16-31-25-46z m361 8q-14 14-78 14 42-16 69-16 8 0 10 1 0 0-1 1z" horiz-adv-x="857.1" />
<glyph glyph-name="cw" unicode="&#xe87a;" d="m857 707v-250q0-14-10-25t-26-11h-250q-23 0-32 23-10 22 7 38l77 77q-82 77-194 77-58 0-111-23t-91-61-62-91-22-111 22-111 62-91 91-61 111-23q66 0 125 29t100 82q4 6 13 7 8 0 14-5l76-77q5-4 6-11t-5-13q-60-74-147-114t-182-41q-87 0-167 34t-136 92-92 137-34 166 34 166 92 137 136 92 167 34q82 0 158-31t137-88l72 72q16 18 39 8 22-9 22-33z" horiz-adv-x="857.1" />
<glyph glyph-name="ccw" unicode="&#xe87b;" d="m857 350q0-87-34-166t-91-137-137-92-166-34q-96 0-183 41t-147 114q-4 6-4 13t5 11l76 77q6 5 14 5 9-1 13-7 41-53 100-82t126-29q58 0 110 23t92 61 61 91 22 111-22 111-61 91-92 61-110 23q-55 0-105-20t-90-57l77-77q17-16 8-38-10-23-33-23h-250q-15 0-25 11t-11 25v250q0 24 22 33 22 10 39-8l72-72q60 57 137 88t159 31q87 0 166-34t137-92 91-137 34-166z" horiz-adv-x="857.1" />
<glyph glyph-name="briefcase" unicode="&#xe87c;" d="m357 707h286v72h-286v-72z m643-357v-268q0-37-26-63t-63-26h-822q-36 0-63 26t-26 63v268h375v-89q0-15 11-25t25-11h178q15 0 25 11t11 25v89h375z m-429 0v-71h-142v71h142z m429 268v-215h-1000v215q0 37 26 63t63 26h197v89q0 23 15 38t38 16h322q22 0 38-16t15-38v-89h197q37 0 63-26t26-63z" horiz-adv-x="1000" />
<glyph glyph-name="graduation-cap" unicode="&#xe87d;" d="m166 238l334-168 276 136q-4-22-8-47t-6-35-11-23-24-23-45-22q-40-18-80-41t-63-34-39-11-40 13-64 37-80 40q-72 32-103 69t-47 109z m810 246q24-14 24-33t-24-33l-78-44-308 102q-22 36-90 36-40 0-67-16t-27-40 27-40 67-16q26 0 36 4l292-68-268-152q-60-32-120 0l-416 234q-24 14-24 33t24 33l416 234q60 32 120 0z m-128-442q18 116 13 182t-19 90l-14 22 70 38q6-8 12-28t17-101-7-197q-4-26-22-30t-35 5-15 19z" horiz-adv-x="1000" />
<glyph glyph-name="mail-1" unicode="&#xe87e;" d="m929 11v428q-18-20-39-37-149-114-238-188-28-24-46-38t-48-27-57-13h-2q-26 0-57 13t-48 27-46 38q-88 74-238 188-21 17-39 37v-428q0-8 6-13t12-5h822q7 0 12 5t6 13z m0 586v14t-1 7-1 7-3 5-5 4-8 2h-822q-7 0-12-6t-6-12q0-94 82-159 108-85 224-177 4-2 20-16t25-21 25-18 28-15 24-5h2q11 0 24 5t28 15 25 18 25 21 20 16q116 92 224 177 30 24 56 65t26 73z m71 21v-607q0-37-26-63t-63-27h-822q-36 0-63 27t-26 63v607q0 37 26 63t63 26h822q37 0 63-26t26-63z" horiz-adv-x="1000" />
<glyph glyph-name="heart-empty" unicode="&#xe87f;" d="m929 517q0 46-12 80t-31 55-46 33-52 18-55 4-62-14-62-36-48-40-34-34q-10-13-27-13t-27 13q-14 15-34 34t-48 40-62 36-62 14-55-4-52-18-46-33-31-55-12-80q0-93 105-198l324-312 324 312q105 105 105 198z m71 0q0-123-128-251l-347-335q-10-10-25-10t-25 10l-348 336q-5 5-15 15t-31 36-38 55-30 67-13 77q0 123 71 192t196 70q34 0 70-12t67-33 54-38 42-38q20 20 42 38t54 38 67 33 70 12q125 0 196-70t71-192z" horiz-adv-x="1000" />
<glyph glyph-name="heart-1" unicode="&#xe880;" d="m500-79q-14 0-25 10l-348 336q-5 5-15 15t-31 36-38 55-30 67-13 77q0 123 71 192t196 70q34 0 70-12t67-33 54-38 42-38q20 20 42 38t54 38 67 33 70 12q125 0 196-70t71-192q0-123-128-251l-347-335q-10-10-25-10z" horiz-adv-x="1000" />
<glyph glyph-name="keyboard" unicode="&#xe881;" d="m214 198v-53q0-9-9-9h-53q-9 0-9 9v53q0 9 9 9h53q9 0 9-9z m72 143v-53q0-9-9-9h-125q-9 0-9 9v53q0 9 9 9h125q9 0 9-9z m-72 143v-54q0-9-9-9h-53q-9 0-9 9v54q0 9 9 9h53q9 0 9-9z m572-286v-53q0-9-9-9h-482q-9 0-9 9v53q0 9 9 9h482q9 0 9-9z m-357 143v-53q0-9-9-9h-54q-9 0-9 9v53q0 9 9 9h54q9 0 9-9z m-72 143v-54q0-9-9-9h-53q-9 0-9 9v54q0 9 9 9h53q9 0 9-9z m214-143v-53q0-9-8-9h-54q-9 0-9 9v53q0 9 9 9h54q8 0 8-9z m-71 143v-54q0-9-9-9h-53q-9 0-9 9v54q0 9 9 9h53q9 0 9-9z m214-143v-53q0-9-9-9h-53q-9 0-9 9v53q0 9 9 9h53q9 0 9-9z m215-143v-53q0-9-9-9h-54q-9 0-9 9v53q0 9 9 9h54q9 0 9-9z m-286 286v-54q0-9-9-9h-54q-9 0-9 9v54q0 9 9 9h54q9 0 9-9z m143 0v-54q0-9-9-9h-54q-9 0-9 9v54q0 9 9 9h54q9 0 9-9z m143 0v-196q0-9-9-9h-125q-9 0-9 9v53q0 9 9 9h62v134q0 9 9 9h54q9 0 9-9z m71-420v500h-929v-500h929z m71 500v-500q0-29-21-50t-50-21h-929q-29 0-50 21t-21 50v500q0 30 21 51t50 21h929q30 0 50-21t21-51z" horiz-adv-x="1071.4" />
<glyph glyph-name="phone" unicode="&#xe882;" d="m786 158q0-15-6-39t-12-38q-11-28-68-60-52-28-103-28-16 0-30 2t-32 7-26 8-31 11-28 10q-54 20-97 47-72 44-148 120t-120 148q-27 43-46 97-2 5-10 28t-12 31-8 26-7 32-2 29q0 52 29 104 31 56 59 68 14 6 38 12t39 6q8 0 12-2 10-3 30-43 6-10 16-30t20-35 17-30q2-2 10-14t12-20 4-16q0-11-16-28t-35-30-34-30-16-25q0-5 3-13t4-11 8-14 7-10q42-77 97-132t131-97q1 0 10-6t14-8 11-5 13-2q10 0 25 15t30 35 31 35 28 16q7 0 15-4t20-12 14-10q14-8 30-17t35-20 31-17q39-19 42-29 2-4 2-12z" horiz-adv-x="785.7" />
<glyph glyph-name="lightbulb" unicode="&#xe883;" d="m411 529q0-8-6-13t-12-5-13 5-5 13q0 25-30 39t-59 14q-8 0-13 5t-5 13 5 13 13 5q28 0 55-9t49-30 21-50z m89 0q0 40-19 74t-50 57-69 35-76 12-76-12-69-35-50-57-20-74q0-57 38-101 6-6 17-18t17-19q72-85 79-166h127q8 81 79 166 6 6 17 19t17 18q38 44 38 101z m71 0q0-87-57-150-25-27-42-49t-33-53-19-60q26-15 26-46 0-20-14-35 14-15 14-36 0-29-25-45 8-13 8-26 0-26-18-40t-43-14q-11-25-34-39t-48-15-49 15-33 39q-26 0-44 14t-17 40q0 13 7 26-25 16-25 45 0 21 14 36-14 15-14 35 0 31 26 46-2 28-19 60t-33 53-41 49q-58 63-58 150 0 55 25 103t65 79 92 49 104 19 104-19 91-49 66-79 24-103z" horiz-adv-x="571.4" />
<glyph glyph-name="vcard" unicode="&#xe884;" d="m900 750q42 0 71-29t29-71l0-600q0-40-29-70t-71-30l-800 0q-40 0-70 30t-30 70l0 600q0 42 30 71t70 29l800 0z m0-700l0 600-800 0 0-600 800 0z m-450 196l0-90-250 0 0 90 250 0z m0 150l0-90-250 0 0 90 250 0z m0 150l0-90-250 0 0 90 250 0z m346-320l4-70-250 0q0 70 6 70 84 22 84 66 0 16-27 56t-27 88q0 110 90 110t90-110q0-48-28-88t-28-56q0-20 21-36t43-22z" horiz-adv-x="1000" />
<glyph glyph-name="music-outline" unicode="&#xe885;" d="m729 797q42 0 74-31t31-73l0-529q0-86-70-147t-165-61q-93 0-159 57-30-50-85-80t-120-29q-96 0-166 61t-69 148q0 66 44 120t112 76l0 317q0 40 27 70t65 34l468 65q2 0 7 1t6 0z m-313-633q0 59 45 103t112 52l0 90-157-22 0-223z m313 0l0 529-469-66 0-413q-17 3-25 3-55 0-93-31t-38-73q0-44 39-75t92-30 92 30 38 75l0 319 260 38 0-203q-17 2-26 2-54 0-92-31t-38-74 38-74 92-30 92 30 38 74z" horiz-adv-x="834" />
<glyph glyph-name="cancel-circled-outline" unicode="&#xe886;" d="m469 819q194 0 331-137t138-332-138-331-331-138-331 138-138 331 138 332 331 137z m0-834q151 0 258 107t107 258-107 258-258 107-258-107-107-258 107-258 258-107z m36 365l139-137q12-13 5-29t-24-16q-11 0-19 7l-137 139-138-139q-7-7-18-7-17 0-24 16t5 29l139 137-139 138q-18 17 1 36t36 1l138-138 137 138q18 18 37-1t1-36z" horiz-adv-x="938" />
<glyph glyph-name="info-outline" unicode="&#xe887;" d="m429 115q50-6 78-51 18-31 12-69t-34-61q-92-79-215-79-160 0-220 122-52 109 13 238l30 58q-51 6-79 51-19 31-12 69t33 61q64 54 154 71-32 53-32 111 0 87 61 148t147 61 147-61 61-148q0-62-35-114t-90-77q40-52 44-123t-34-149z m-64 625q-43 0-74-31t-31-73 31-73 74-31q43 0 73 31t31 73-31 73-73 31z m-95-781q39 0 76 13t54 27l17 12q-33-11-63-11-46 0-56 33t15 82l52 104q44 91 10 150t-123 59q-39 0-76-14t-54-25l-18-13q34 12 64 12 46 0 56-34t-15-81l-52-104q-44-91-10-151t123-59z" horiz-adv-x="573" />
<glyph glyph-name="location-outline" unicode="&#xe888;" d="m416 741q-128 0-221-90-91-88-91-216 0-126 91-215l221-219 223 219q90 88 90 215 0 129-90 216-93 90-223 90z m0 104q174 0 295-120t122-290-122-290l-295-290-293 290q-123 120-123 290t123 290 293 120z m0-286q-52 0-91-39t-39-92 39-92q38-37 91-37 55 0 93 37 39 39 39 92t-39 92-93 39z m0 52q75 0 129-53t54-129-54-129-129-54-128 54-54 129 54 129 128 53z" horiz-adv-x="833" />
<glyph glyph-name="globe-alt-outline" unicode="&#xe889;" d="m346 663q-86 0-147-61t-60-148 60-147 147-60 148 60 61 147-61 148-148 61z m0 104q129 0 221-92t92-221-92-220-221-92-220 92-92 220 92 221 220 92z m313-833q21 0 37-15t15-37-15-37-37-16l-520 0q-21 0-37 16t-16 37 16 37 37 15l207 0 0 51q-193 0-331 138-15 15-15 37t15 37 37 15 37-15q106-106 257-106 153 0 259 106t106 257q0 153-106 259l-37 36 107 107q15 15 37 15t37-15 14-37-15-37l-35-35q102-128 102-293 0-193-137-331-97-96-227-125l0-64 208 0z" horiz-adv-x="815" />
<glyph glyph-name="brush" unicode="&#xe88a;" d="m909 790q49-49 24-112-135-339-487-548-17-10-29-12-16-104-95-171t-184-67q-24 0-46 4l-76 11-12 76q-20 127 55 223 68 86 180 104 5 17 10 27 209 353 548 488 19 7 39 7 43 0 73-30z m-771-805q71 0 121 44t58 114l-54 53q-77-8-123-68t-33-142q10-1 31-1z m255 234q38 21 93 61-84 84-85 86-35-48-62-93z m135 92q213 165 309 405-243-96-406-310z" horiz-adv-x="941" />
<glyph glyph-name="coffee" unicode="&#xe88b;" d="m678-15l-625 0q-22 0-37 16t-16 37 16 36 37 16l625 0q21 0 36-16t15-36-15-37-36-16z m25 730q75 0 128-54t54-128-54-129-128-54l-25 0 0-104q0-43-32-74t-73-31l-417 0q-42 0-73 31t-30 74l0 469 650 0z m-130-469l0 364-417 0 0-364 417 0z m130 208q32 0 55 23t23 56q0 31-23 54t-55 23l-78 0 0-156 78 0z" horiz-adv-x="885" />
<glyph glyph-name="book-open" unicode="&#xe88c;" d="m464 629q5 5 15 12t47 26 83 35 127 27 175 12l0-670q-95 0-176-12t-128-27-82-34-47-29l-14-10q-4 4-13 12t-46 26-83 35-127 27-177 12l0 670q94 0 174-12t128-27 83-33 48-29z m-334 0l0-450q172-14 279-71l0 449q-110 58-279 72z m669-450l0 450q-168-14-278-72l0-449q108 57 278 71z" horiz-adv-x="928" />
<glyph glyph-name="video-1" unicode="&#xe88d;" d="m0-29l0 758 1000 0 0-758-1000 0z m123 123l754 0 0 512-754 0 0-512z m266 82l0 340 293-170z" horiz-adv-x="1000" />
<glyph glyph-name="key" unicode="&#xe88e;" d="m0 350q0 113 80 193t193 81q96 0 169-58t97-148l461 0 0-117-64 0 0-218-116 0 0 218-54 0 0-150-118 0 0 150-105 0q-18-95-94-160t-176-64q-113 0-193 80t-80 193z m127 0q0-60 43-103t103-43 104 43 43 103-43 104-104 43-103-43-43-104z" horiz-adv-x="1000" />
<glyph glyph-name="graduation-cap-1" unicode="&#xe88f;" d="m0 600q0 33 21 59t51 33l407 94q11 1 21 1t22-1l406-94q31-8 51-33t21-59-21-59-51-33l-84-19 0-264q0-68-84-112t-260-44-260 44-84 112l0 264-84 19q-31 8-51 33t-21 59z m63 0q0-25 23-31l406-94 16 0 406 94q23 6 23 31t-23 31l-406 94-16 0-406-94q-23-6-23-31z m156-375q0-20 29-40t97-37 155-17 155 17 97 37 29 40l0 250-259-61q-12-1-22-1t-21 1l-260 61 0-250z m656-250q0 31 20 78t42 47 43-47 20-78q0-25-19-44t-44-19-43 19-19 44z m31 188l0 281q0 13 9 22t22 9 23-9 9-22l0-281q0-14-9-23t-23-9-22 9-9 23z" horiz-adv-x="1000" />
<glyph glyph-name="camera" unicode="&#xe890;" d="m0 6l0 469q0 35 23 61t55 31l135 23 43 108q12 27 35 43t53 15l312 0q30 0 53-15t35-43l43-108 135-23q33-6 56-31t22-61l0-469q0-39-27-66t-67-28l-812 0q-39 0-67 28t-27 66z m63 0q0-13 8-22t23-9l812 0q14 0 23 9t8 22l0 469q0 27-25 31l-170 28-56 140q-8 20-30 20l-312 0q-22 0-30-20l-56-140-170-28q-25-4-25-31l0-469z m187 282q0 103 73 176t177 74 177-74 73-176-73-177-177-73-177 73-73 177z m63-15q5-77 65-128t137-45 128 65 45 137-66 128-137 45-128-65-44-137z m62 15q0 50 36 87t89 38q16 0 16-16t-16-16q-39 0-66-27t-28-66q0-16-15-16t-16 16z" horiz-adv-x="1000" />
<glyph glyph-name="eye-1" unicode="&#xe891;" d="m0 341l0 18q0 1 2 3l0 4q70 130 206 213t290 83 291-83 205-215l1-1 1-1 0-4q2-6 2-8t-2-8l0-4-1-1-1-1q-68-132-205-215t-291-83-290 83-206 215l0 2q-2 2-2 3z m66 9q65-113 183-182t250-68 250 68 183 182q-65 113-183 182t-250 68-250-68-183-182z m213 0q0 90 65 154t154 65 154-65 65-154-65-154-154-65-154 65-65 154z m32 0q0-78 54-133t133-54 133 54 55 133-55 133-133 55-133-55-54-133z m62 0q0 53 37 89t88 36q16 0 16-16t-16-15q-37 0-65-28t-29-66q0-16-15-16t-16 16z" horiz-adv-x="998" />
<glyph glyph-name="beaker" unicode="&#xe892;" d="m2 354q10 49 55 68l424 170q-12 20-12 41 0 33 23 57l43 43q24 23 56 23t56-23l240-240q23-24 23-56t-23-56l-43-45q-24-21-55-21-23 0-43 12l-168-418q-17-47-68-57-8-2-18-2l-4 0q-37 0-62 27l-398 393q-36 35-26 84z m62-11q-3-16 8-28l397-393q10-10 21-10l8 0q16 4 24 20l146 371q-58 61-123 85t-146 33-123 23l-194-78q-15-6-18-23z m186-24q0 25 19 44t44 18 44-18 18-44-18-44-44-19-44 19-19 44z m31 0q0-14 9-23t23-8 22 8 9 23-9 22-22 9-23-9-9-22z m43 144q30-6 80-13 59-6 93-13t87-33 98-70l41 102 55-55q11-11 21 0l45 45q12 10 0 22l-242 242q-10 10-22 0l-45-45q-9-12 0-22l55-54z m51-332q0 14 9 23t22 9 23-9 9-23-9-22-23-9-22 9-9 22z m63 141q0 33 22 56t56 22 55-22 23-56-23-56-55-22-56 22-22 56z m31 0q0-20 14-33t33-14 33 14 14 33-14 33-33 14-33-14-14-33z m375 500q0 33 22 56t56 22 56-22 22-56-22-56-56-22-56 22-22 56z m31-172q0 14 9 22t22 9 23-9 9-22-9-22-23-9-22 9-9 22z m0 172q0-20 14-33t33-14 33 14 14 33-14 33-33 14-33-14-14-33z" horiz-adv-x="1000" />
<glyph glyph-name="beaker-1" unicode="&#xe893;" d="m852 42q31-50 12-85t-78-36h-643q-59 0-79 36t12 85l281 442v223h-36q-14 0-25 11t-10 25 10 25 25 11h286q15 0 25-11t11-25-11-25-25-11h-36v-223z m-435 405l-151-240h397l-152 240-11 17v243h-71v-243z" horiz-adv-x="928.6" />
<glyph glyph-name="smile" unicode="&#xe894;" d="m633 250q-21-67-77-109t-127-41-128 41-77 109q-4 14 3 27t21 18q14 4 27-2t17-22q14-44 52-72t85-28 84 28 52 72q4 15 18 22t27 2 21-18 2-27z m-276 243q0-30-21-51t-50-21-51 21-21 51 21 50 51 21 50-21 21-50z m286 0q0-30-21-51t-51-21-50 21-21 51 21 50 50 21 51-21 21-50z m143-143q0 73-29 139t-76 114-114 76-138 28-139-28-114-76-76-114-29-139 29-139 76-113 114-77 139-28 138 28 114 77 76 113 29 139z m71 0q0-117-57-215t-156-156-215-58-216 58-155 156-58 215 58 215 155 156 216 58 215-58 156-156 57-215z" horiz-adv-x="857.1" />
<glyph glyph-name="frown" unicode="&#xe895;" d="m633 164q4-14-2-27t-21-17-27 2-18 21q-14 45-52 72t-84 28-85-28-52-72q-4-15-17-21t-27-2q-15 4-21 17t-3 27q21 68 77 109t128 41 127-41 77-109z m-276 329q0-30-21-51t-50-21-51 21-21 51 21 50 51 21 50-21 21-50z m286 0q0-30-21-51t-51-21-50 21-21 51 21 50 50 21 51-21 21-50z m143-143q0 73-29 139t-76 114-114 76-138 28-139-28-114-76-76-114-29-139 29-139 76-113 114-77 139-28 138 28 114 77 76 113 29 139z m71 0q0-117-57-215t-156-156-215-58-216 58-155 156-58 215 58 215 155 156 216 58 215-58 156-156 57-215z" horiz-adv-x="857.1" />
<glyph glyph-name="music" unicode="&#xe896;" d="m10-45q-22 57 5 118 37 76 131 107 39 14 78 14 69 0 119-37l0 537q0 23 15 40t36 22l531 94 12 0q24 0 41-16 22-17 22-47l0-656q0-35-16-66-37-76-131-108-39-13-78-13-60 0-107 28t-65 77q-21 57 6 117 37 77 131 108 39 14 78 14 68 0 119-38l0 379-519-91-12 0 0-500q0-36-16-67-37-76-131-107-39-14-78-14-60 0-107 28t-64 77z m57 22q15-41 66-58t107 3 85 62 13 83-66 57-106-2-85-62-14-83z m337 623l531 94 0 93-531-93 0-94z m256-529q15-41 66-58t107 3 85 62 13 83-66 57-107-3-84-61-14-83z" horiz-adv-x="1000" />
<glyph glyph-name="photo" unicode="&#xe897;" d="m0-25l0 750q0 53 36 89t89 36l687 0q53 0 89-36t36-89l0-750q0-53-36-89t-89-36l-687 0q-53 0-89 36t-36 89z m63 0q0-25 18-44t44-19l687 0q26 0 44 19t19 44l0 750q0 25-19 44t-44 18l-687 0q-25 0-44-18t-18-44l0-750z m62 156l0 563q0 13 9 22t22 9l625 0q14 0 23-9t9-22l0-563q0-13-9-22t-23-9l-625 0q-13 0-22 9t-9 22z m31 0l483 0-88 100-18 21-252 286-125-145 0-262z m0 311l102 117q10 10 23 10t24-10l246-281 82 94q10 9 23 9t24-9l101-112 0 434-625 0 0-252z m344 96q0 39 27 66t67 27 66-27 28-66-28-67-66-27-67 27-27 67z m31 0q0-26 19-44t44-19 44 19 18 44-18 43-44 19-44-19-19-43z m41-284l108-123 101 0 0 82-125 137z" horiz-adv-x="937" />
<glyph glyph-name="cancel" unicode="&#xe898;" d="m654 349l346-346-154-154-346 346-346-346-154 154 346 346-346 346 154 154 346-346 346 346 154-154z" horiz-adv-x="1000" />
<glyph glyph-name="cancel-outline" unicode="&#xe899;" d="m729 143q0-64-46-110t-110-47-110 47l-98 97-99-97q-43-44-110-44t-110 44q-46 46-46 110 0 65 46 111l98 98-98 97q-46 46-46 111 0 64 46 110 44 44 110 44t110-44l99-97 98 97q43 44 110 44t111-44q45-45 45-110 0-66-45-111l-99-97 99-98q45-45 45-111z m-364 135l171-171q15-15 37-15t37 15 15 36q0 22-15 37l-171 172 171 171q15 15 15 37 0 22-15 37t-37 15-37-15l-171-172-172 172q-15 15-37 15t-36-15q-16-17-16-37 0-21 16-37l171-171-171-172q-16-16-16-37 0-20 16-36 15-15 36-15t37 15z" horiz-adv-x="729" />
<glyph glyph-name="camera-2" unicode="&#xe89a;" d="m0-27l0 627 295 0 31 127 362 0 31-127 281 0 0-627-1000 0z m221 346q0-117 83-199t199-82 198 82 82 199-82 199-198 82-199-82-83-199z m84 0q0 82 57 140t140 59 141-59 58-140-58-140-141-57-140 57-57 140z m527 139l143 0 0 82-143 0 0-82z" horiz-adv-x="1000" />
<glyph glyph-name="picture-2" unicode="&#xe89b;" d="m0-68l0 836 1000 0 0-836-1000 0z m76 78l848 0 0 680-848 0 0-680z m90 80l0 59 150 195 102-86 193 291 223-228 0-231-668 0z m0 416q0 37 24 62t62 24q33 0 58-24t24-62q0-33-24-57t-58-25q-37 0-62 25t-24 57z" horiz-adv-x="1000" />
<glyph glyph-name="file-image" unicode="&#xe89c;" d="m819 638q16-16 27-42t11-50v-642q0-23-15-38t-38-16h-750q-23 0-38 16t-16 38v892q0 23 16 38t38 16h500q22 0 49-11t42-27z m-248 136v-210h210q-5 16-12 23l-175 175q-6 7-23 12z m215-853v572h-232q-23 0-38 15t-16 38v233h-429v-858h715z m-72 250v-178h-571v107l107 107 71-71 215 214z m-464 108q-45 0-76 31t-31 76 31 76 76 31 76-31 31-76-31-76-76-31z" horiz-adv-x="857.1" />
<glyph glyph-name="music-1" unicode="&#xe89d;" d="m1-16q-8 57 38 103t118 57q64 10 119-17l25 652 690 53q-32-727-34-756-1-51-45-91t-109-50q-72-10-129 22t-64 89 37 105 117 58q68 9 125-22l25 465-539-55-5-131q-6-131-12-277t-8-176l0-6q-6-50-49-89t-107-47q-70-10-127 23t-66 90z" horiz-adv-x="991" />
<glyph glyph-name="minus" unicode="&#xe89e;" d="m550 400q30 0 30-50t-30-50l-520 0q-30 0-30 50t30 50l520 0z" horiz-adv-x="580" />
<glyph glyph-name="plus-1" unicode="&#xe89f;" d="m911 462l0-223-335 0 0-336-223 0 0 336-335 0 0 223 335 0 0 335 223 0 0-335 335 0z" horiz-adv-x="928" />
<glyph glyph-name="minus-1" unicode="&#xe8a0;" d="m18 239l0 223 893 0 0-223-893 0z" horiz-adv-x="928" />
<glyph glyph-name="download-alt" unicode="&#xe8a1;" d="m0-150l0 135 1000 0 0-135-1000 0z m88 586l228 0 0 414 370 0 0-414 228 0-414-385z" horiz-adv-x="1000" />
<glyph glyph-name="users" unicode="&#xe8a2;" d="m1000-90l-224 0 0 150q0 54-30 81t-154 89q40 30 40 84 0 16-13 33t-19 51q-2 8-14 16t-14 42q0 24 12 30-6 34-8 60-4 38 23 78t95 40 96-40 24-78l-8-60q12-6 12-30-2-34-14-42t-14-16q-6-34-19-51t-13-33q0-42 21-66t77-48q112-46 130-80 6-8 9-61t5-101l0-48z m-488 262q182-78 182-124l0-138-694 0 0 184q0 44 84 78 76 32 104 64t28 88q0 20-19 44t-25 68q-2 10-18 22t-20 56q0 14 3 23t7 13l4 2q-6 46-10 82-4 50 33 103t127 53 127-53 33-103l-10-82q14-8 14-38-4-44-20-56t-18-22q-6-44-25-68t-19-44q0-56 28-88t104-64z" horiz-adv-x="1000" />
<glyph glyph-name="group" unicode="&#xe8a3;" d="m0 106l0 134q0 26 18 32l171 80q-66 39-68 131 0 56 35 103 37 41 90 43 31 0 63-19-49-125 23-237-12-11-25-19l-114-55q-48-23-52-84l0-143-114 0q-25 0-27 34z m193-59l0 168q0 27 22 37l152 70 57 28q-37 23-60 66t-22 94q0 76 46 130t110 54 109-54 45-130q0-106-78-158l61-30 146-70q24-10 24-37l0-168q-2-37-37-41l-541 0q-14 2-24 14t-10 27z m473 330q68 106 22 231 31 19 66 21 49 0 90-43 35-41 35-103 0-82-65-131l168-80q18-10 18-32l0-134q0-32-27-34l-118 0 0 143q0 57-50 84l-110 53q-15 8-29 25z" horiz-adv-x="1000" />
<glyph glyph-name="camera-alt" unicode="&#xe8a4;" d="m518 386q0 8-5 13t-13 5q-37 0-63-27t-26-63q0-8 5-13t13-5 12 5 5 13q0 23 16 38t38 16q8 0 13 5t5 13z m125-73q0-59-42-101t-101-42-101 42-42 101 42 101 101 42 101-42 42-101z m-572-320h858v71h-858v-71z m643 320q0 89-62 152t-152 62-151-62-63-152 63-151 151-63 152 63 62 151z m-571 358h214v72h-214v-72z m-72-107h858v143h-462l-36-71h-360v-72z m929 143v-714q0-30-21-51t-50-21h-858q-29 0-50 21t-21 51v714q0 30 21 51t50 21h858q29 0 50-21t21-51z" horiz-adv-x="1000" />
<glyph glyph-name="eye-2" unicode="&#xe8a5;" d="m929 314q-85 132-213 197 34-58 34-125 0-104-73-177t-177-73-177 73-73 177q0 67 34 125-128-65-213-197 75-114 187-182t242-68 242 68 187 182z m-402 215q0 11-8 19t-19 7q-70 0-120-50t-50-119q0-12 8-19t19-8 19 8 8 19q0 48 34 82t82 34q11 0 19 8t8 19z m473-215q0-19-11-38-78-129-210-206t-279-77-279 77-210 206q-11 19-11 38t11 39q78 128 210 205t279 78 279-78 210-205q11-20 11-39z" horiz-adv-x="1000" />
<glyph glyph-name="moon" unicode="&#xe8a6;" d="m704 123q-30-5-61-5-102 0-188 50t-137 137-50 188q0 107 58 199-112-33-183-128t-72-214q0-73 29-139t76-113 114-77 139-28q80 0 152 34t123 96z m114 47q-53-113-159-181t-230-68q-87 0-167 34t-136 92-92 137-34 166q0 85 32 163t87 135 132 92 161 38q25 1 34-22 10-23-8-40-48-43-73-101t-26-122q0-83 41-152t111-111 152-41q66 0 127 29 23 10 40-7 8-8 10-19t-2-22z" horiz-adv-x="857.1" />
<glyph glyph-name="home-outline" unicode="&#xe8a7;" d="m1108 422q38-30 38-80 0-42-30-73t-75-31l-51 0 0-312q0-44-31-75t-74-30l-625 0q-42 0-73 30t-31 75l0 312-52 0q-44 0-74 31t-30 73q0 46 36 79 79 66 204 174t211 181 88 75l34 29 35-29q1-1 86-75t211-181 203-173z m-430-496l0 260-209 0 0-260 209 0z m207 416l156 0q-231 194-468 400-238-206-469-400l156 0 0-416 156 0 0 312 313 0 0-312 156 0 0 416z" horiz-adv-x="1146" />
<glyph glyph-name="phone-outline" unicode="&#xe8a8;" d="m964 733q31-31 52-74t27-109-12-137-74-163-149-185q-237-237-454-237-134 0-215 82l-93 92q-46 46-46 111t46 110l83 83q46 46 110 46t110-46l72-71 218 216-73 72q-46 47-46 111t46 111l83 82q45 45 111 45 65 0 110-45z m-324-62q-15-15-15-37t15-37l56-56 157 156-57 56q-15 15-36 15-22 0-37-15z m-521-595l57-56 157 156-58 56q-15 15-36 15t-36-15l-84-82q-15-15-15-37t15-37z m615 62q81 82 130 159t64 133 11 105-17 78-32 47l-156-157 15-15q15-15 15-37t-15-36l-291-292q-15-15-37-15-22 0-37 15l-15 17-156-158q50-50 141-50 174 0 380 206z" horiz-adv-x="1044" />
<glyph glyph-name="sun" unicode="&#xe8a9;" d="m542 766l-51-152-53 152q-7 22 3 42t31 28q30 10 56-11t14-59z m-469-363l153-53-153-52q-21-8-42 3t-28 32q-10 30 12 56t58 14z m365-469l53 152 51-152q7-21-3-42t-31-28q-30-10-56 12t-14 58z m469 364l-153 52 153 53q21 7 42-3t28-32q10-30-12-57t-58-13z m-675 383l71-145-145 72q-21 10-28 31t3 42q16 32 50 30t49-30z m-74-588l145 71-71-145q-10-21-31-28t-43 3q-31 16-30 50t30 49z m590-74l-71 145 145-71q21-10 28-32t-3-42q-16-31-50-30t-49 30z m74 589l-145-72 71 145q10 22 31 29t43-4q31-16 30-50t-30-48z m-331-493q-97 0-166 70t-69 165 69 166 166 69 165-69 68-166-68-165-165-70z m0 365q-54 0-93-38t-39-92 39-92 93-38 92 38 38 92-38 92-92 38z" horiz-adv-x="980" />
<glyph glyph-name="plane-outline" unicode="&#xe8aa;" d="m963 363q51-29 71-86t-3-111q-24-54-77-80t-111-9l-140 40 0-44 46-36q47-38 57-97t-23-110q-32-51-90-67t-111 11q-26 10-60 10-15 0-31-2t-23-5l-7-3q-54-27-112-11t-90 67q-32 50-22 110t56 97l46 36 0 44-140-40q-57-16-110 9t-76 80-4 111 70 86l260 148 0 250q0 75 54 128t129 54 128-54 53-128l0-250z m-29-156q8 17 2 36t-24 29l-313 179 0 310q0 32-23 55t-54 23-55-23-24-55l0-310-312-179q-17-9-23-28t1-37 25-26 37-4l272 77 0-231-85-68q-16-12-19-33t8-37 30-21 37 4q44 20 108 20 29 0 55-5t39-10l12-5q18-10 38-4t30 21 7 37-19 33l-85 68 0 231 273-77q19-5 37 4t25 26z m-438 566q0 26 26 26 25 0 25-26 0-25-25-25-26 0-26 25z" horiz-adv-x="1043" />
<glyph glyph-name="tree" unicode="&#xe8ab;" d="m927 96q21-28 5-56t-46-29l-364 0 0-156q0-22-16-37t-36-15-37 15-16 37l0 156-364 0q-30 0-46 29t5 56l141 176-48 0q-29 0-45 26t2 55q365 522 366 523 15 20 42 21t42-22l365-522q18-28 2-55t-44-26l-49 0z m-405 20l256 0-141 175q-21 27-5 56t46 29l57 0-265 377-265-377 56 0q30 0 46-29t-5-56l-141-175 256 0 0 260q0 21 16 37t37 15 36-15 16-37l0-260z" horiz-adv-x="939" />
<glyph glyph-name="location-inv" unicode="&#xe8ac;" d="m464 519q0 68-49 117t-119 49-117-49-49-117q0-70 49-119 61-61 117-151 54 86 120 152 48 48 48 118z m-168 278q117 0 199-82t81-197-82-197q-8-9-21-23t-47-59-60-92-48-113-22-131q0 63-20 130t-49 115-58 90-49 62l-20 21q-82 81-82 197t82 197 196 82z m57-278q0-24-17-41t-40-16q-25 0-40 16t-15 41 15 39 40 16q24 0 41-17t16-38z" horiz-adv-x="594" />
<glyph glyph-name="smiley" unicode="&#xe8ad;" d="m0-150l0 1000 1000 0 0-1000-1000 0z m152 471q0-145 102-246t246-102 246 102 102 246l-696 0z m67 230q0-45 31-76t76-31 77 31 33 76-33 77-77 33-76-33-31-77z m336 0q0-45 32-76t77-31 76 31 31 76-31 77-76 33-77-33-32-77z" horiz-adv-x="1000" />
<glyph glyph-name="person" unicode="&#xe8ae;" d="m0 238l0 275q0 71 47 96 17 8 41 8l207 0q23 0 43-8 59-29 59-96l0-275q-4-31-31-28t-28 28l0 262q-2 9-18 7t-15-7l0-600q-4-27-26-36t-42 4-20 34l0 365q-4 18-22 15t-17-15l0-365q-2-29-25-38t-42 3-21 33l0 600q-4 9-18 7t-15-7l0-262q-4-31-31-28t-26 28z m102 505q0 40 28 68t68 28 69-28 28-68-28-68-69-29-68 29-28 68z" horiz-adv-x="396" />
<glyph glyph-name="adult" unicode="&#xe8af;" d="m0-132l0 289q0 103 60 177t157 75l330 0q101-2 158-76t57-176l0-289q0-18-18-18l-105 0q-16 0-16 18l0 252q-6 27-27 24t-22-24l0-252q-2-18-19-18l-352 0q-17 0-17 18l0 252q-4 27-26 24t-23-24l0-252q0-18-18-18l-101 0q-18 0-18 18z m186 783q0 82 59 140t140 59q86-4 142-60t59-139q-2-84-61-143t-140-58q-84 2-142 60t-57 141z" horiz-adv-x="762" />
<glyph glyph-name="child" unicode="&#xe8b0;" d="m0-134l0 345q-2 92 45 143t129 53l314 0q90 0 130-56t42-140l0-345q-2-16-13-16l-90 0q-16 2-16 16l0 308q-4 28-25 25t-24-25l0-308q0-16-13-16l-293 0q-14 0-14 16l0 308q-4 28-25 25t-24-25l0-308q0-16-14-16l-93 0q-14 2-16 16z m129 778q0 85 61 146t144 60 145-60 60-146-60-145-145-59-144 59-61 145z m88-34q0-47 34-81t82-34 82 34 34 81l-232 0z" horiz-adv-x="660" />
<glyph glyph-name="location-1" unicode="&#xe8b1;" d="m0 475q0 156 109 266t266 109 266-109 109-266q0-78-28-160t-85-166-101-141-110-133q-20-25-49-25l-4 0q-29 0-49 25-66 77-110 133t-101 141-85 166-28 160z m63 0q0-72 28-150t85-161 95-128 100-120l2 0q2-2 2-4l4 4q62 73 100 120t94 128 86 161 29 150q0 129-92 221t-221 91-221-91-91-221z m125 8q0 78 54 133t133 54 133-54 55-133-55-133-133-55-133 55-54 133z m31 0q0-65 46-111t110-45 110 45 46 111-46 110-110 46-110-46-46-110z" horiz-adv-x="750" />
<glyph glyph-name="heart-2" unicode="&#xe8b2;" d="m0 476q0 122 88 210 84 84 204 86t208-78q88 80 208 78t204-86q88-88 88-210t-88-210q-4-4-346-342-27-27-66-27t-66 27q-2 0-346 342-88 88-88 210z m63 0q0-97 70-165l346-342q21-23 43 0l345 342q70 68 70 165t-70 165q-66 66-160 68t-164-60l-43-39-43 39q-70 62-164 60t-160-68q-70-68-70-165z m93 7q0 55 39 94t94 39q16 0 16-16t-16-16q-41 0-71-29t-30-72q0-16-16-16t-16 16z" horiz-adv-x="1000" />
<glyph glyph-name="pencil" unicode="&#xe8b3;" d="m0-41q0 4 1 8t1 8 1 8 1 6l0 2 74 267q10 31 31 53l325 324 0 2 2 2 150 152q60 59 146 59 106 0 186-80 74-74 81-171t-58-161l-476-481q-24-23-55-31l-263-70-3-1q-3-1-7-2t-9-1-10-1-9-1q-45 0-77 32t-32 77z m63 0q0-19 13-33t33-14q6 0 22 4l115 32q4 58-43 105-45 45-105 43l-32-119q-3-14-3-18z m44 168q67-2 118-52t52-120l116 30 11 6q41 47 34 115t-61 121q-51 49-115 59t-112-24q-7-10-11-21z m131 225q45-2 90-20l295 295q-88 22-144-33z m119-35q38-20 65-45 21-22 41-55l297 299q-16 31-39 55-30 29-67 45z m122-129q17-41 21-82l0-24 242 245 0 2q61 60 31 156z m101 508q106 0 186-80 70-73 78-166l0-22 52 55q45 45 41 111-5 74-62 131-63 62-143 62-60 0-101-41z" horiz-adv-x="1000" />
<glyph glyph-name="cup" unicode="&#xe8b4;" d="m0 538l0 93q0 26 17 43t42 20l39 113q13 43 58 43l563 0q45 0 58-43l39-113q24-2 41-20t18-43l0-93q0-26-19-44t-44-19l-33 0 1-3q1-3 1-5l-62-562q-4-24-22-39t-41-16l-437 0q-24 0-41 16t-22 39l-62 562q0 2 1 5l1 3-33 0q-26 0-44 19t-19 44z m63 0l749 0 0 93-749 0 0-93z m62 156l625 0-31 93-563 0z m31-219l10-94 543 0 10 94-563 0z m14-125l35-312 465 0 35 312-535 0z m39-344l10-93 437 0 10 93-457 0z" horiz-adv-x="875" />
<glyph glyph-name="doc" unicode="&#xe8b5;" d="m0-25l0 625q0 39 27 66t67 28l31 0 0 62q0 39 27 67t67 27l687 0q39 0 67-27t27-67l0-781q0-53-36-89t-89-36l-750 0q-53 0-89 36t-36 89z m63 0q0-25 18-44t44-19l750 0q25 0 44 19t18 44l0 781q0 14-8 23t-23 8l-687 0q-14 0-23-8t-8-23l0-750q0-13-9-22t-23-9-22 9-9 22l0 625-31 0q-14 0-23-9t-8-22l0-625z m187 16q0 15 16 15l250 0q15 0 15-15t-15-16l-250 0q-16 0-16 16z m0 93q0 16 16 16l250 0q15 0 15-16t-15-15l-250 0q-16 0-16 15z m0 94q0 16 16 16l250 0q15 0 15-16 0-6-5-11t-10-4l-250 0q-16 0-16 15z m0 94q0 16 16 16l593 0q16 0 16-16t-16-16l-593 0q-16 0-16 16z m0 94q0 15 16 15l593 0q16 0 16-15t-16-16l-593 0q-16 0-16 16z m0 109l0 219q0 13 9 22t22 9l219 0q14 0 22-9t9-22l0-219q0-14-9-22t-22-9l-219 0q-13 0-22 9t-9 22z m63 31l156 0 0 156-156 0 0-156z m281-515q0 15 15 15l250 0q16 0 16-15t-16-16l-250 0q-15 0-15 16z m0 93q0 16 15 16l250 0q16 0 16-16t-16-15l-250 0q-15 0-15 15z m0 94q0 16 15 16l250 0q16 0 16-16 0-6-5-11t-11-5l-250 0q-15 0-15 16z m0 281q0 16 15 16l250 0q16 0 16-16t-16-15l-250 0q-15 0-15 15z m0 94q0 16 15 16l250 0q16 0 16-16t-16-16l-250 0q-15 0-15 16z m0 94q0 15 15 15l250 0q16 0 16-15t-16-16l-250 0q-15 0-15 16z" horiz-adv-x="1000" />
<glyph glyph-name="cd" unicode="&#xe8b6;" d="m5 276q-18 127 29 260 51 126 158 209t234 99 258-29q127-51 210-158t100-234-30-259q-51-126-157-209t-234-100-260 30q-127 51-209 157t-99 234z m89 236q-68-168 4-335t239-233 335 5 233 239-5 334-239 233-334-4-233-239z m57-23q57 144 200 205 15 8 21-7t-8-21q-131-56-183-189-6-14-21-8t-9 20z m59-24q47 121 166 172 14 6 20-9t-8-20q-106-45-151-154-6-14-19-8t-8 19z m57-21q39 94 132 135l2 1q14 6 20-8t-8-21q-84-35-117-119-6-16-21-10t-8 22z m58-24q29 73 101 103t143 1 103-101 1-143-101-103-143-1-103 101-1 143z m58-24q-19-48 2-96t68-66 96 2 66 68-2 96-68 66-96-2-66-68z m57-23q10 24 35 35t47 1 35-35 1-47-35-35-47-1-35 35-1 47z m31-35q5-11 16-16t24 0 16 16 0 24-16 16-24 0-16-16 0-24z m106-210q-6 15 8 21 84 35 117 119 6 16 21 10t8-22q-39-95-132-136l-2 0q-14-6-20 8z m24-57q-6 13 9 21 108 45 151 153 6 15 20 9t9-21q-49-119-168-170-14-6-21 8z m25-58q-6 15 8 21 131 56 183 189 6 14 21 8t9-20q-57-144-200-205l0-2q-15-6-21 9z" horiz-adv-x="998" />
<glyph glyph-name="food" unicode="&#xe8b7;" d="m0 116q0 33 23 55t55 23l84 0q22 121 117 201t221 80q102 0 186-55t126-144l143 70q12 6 24 2t17-16 2-23-16-18l-150-76q4-11 6-21l84 0q33 0 56-23t22-55q0-24-16-41l-109-123 0-24q0-33-22-56t-56-22l-594 0q-33 0-55 22t-23 56l0 24-109 123q-16 17-16 41z m63 0l125-141 0-47q0-16 15-16l594 0q15 0 15 16l0 47 125 141q0 15-15 15l-844 0q-15 0-15-15z m130 78l34 0q21 95 97 157t176 62q84 0 153-46t103-120l27 15q-37 82-113 132t-170 50q-111 0-198-72t-109-178z m55 291q-16 39 16 113 25 61 13 90l-2 0 0 6q0 15 16 15 10 0 14-9 17-42-14-114-25-62-12-92l0-3q0-16-15-16-10 0-14 8l0 2-2 0z m10-291l33 0q20 68 77 112t132 44q66 0 120-36t79-95l30 14q-32 66-93 107t-136 41q-86 0-153-52t-89-135z m66 0l33 0q18 43 57 68t86 26 86-26 57-68l5 0 24 11q-22 51-68 83t-104 31q-61 0-108-35t-68-90z m69 0l37 0q29 31 70 31t68-31l39 0q-37 62-107 62t-107-62z m76 429l0 2q-16 39 13 114 28 60 14 89l0 6q0 16 14 16 12 0 15-10 18-41-13-113-26-63-14-92 2-2 2-4 0-15-16-15-9 0-15 7z m160-134l0 2q-16 39 16 111 25 62 11 90l0 6q0 15 16 15 10 0 14-9 17-40-14-114-26-60-14-90l0-2q2-2 2-3 0-16-15-16-10 0-14 10l-2 0z m160-295l18 0q0 2-1 4t-1 4z" horiz-adv-x="1000" />
<glyph glyph-name="t-shirt" unicode="&#xe8b8;" d="m4 580q-14 41 20 69l156 125q17 13 39 13l562 0q22 0 39-13l157-125q33-28 19-69l-62-187q-10-29-39-39-10-4-20-4-18 0-31 8l0-383q0-25-19-44t-44-19l-562 0q-26 0-44 19t-19 44l0 383q-13-8-31-8-10 0-19 4-30 10-39 39z m59 20l62-187 94 62 0-500 562 0 0 500 94-62 63 187-157 125-131 0q-13-41-54-67t-96-27-96 27-54 67l-131 0z m320 125q14-27 45-45t72-18 72 18 45 45l-234 0z" horiz-adv-x="1000" />
</font>
</defs>
</svg>